(kicad_symbol_lib (version 20211014) (generator kicad_symbol_editor)
  (symbol "STM32L073RBT6" (pin_names (offset 0.254)) (in_bom yes) (on_board yes)
    (property "Reference" "U?" (id 0) (at 38.1 11.43 0)
      (effects (font (size 1.524 1.524)))
    )
    (property "Value" "STM32L073RBT6" (id 1) (at 38.1 7.62 0)
      (effects (font (size 1.524 1.524)))
    )
    (property "Footprint" "footprints:STM32L073RBT6" (id 2) (at 38.1 6.096 0)
      (effects (font (size 1.524 1.524)) hide)
    )
    (property "Datasheet" "" (id 3) (at 0 -6.35 0)
      (effects (font (size 1.524 1.524)))
    )
    (property "ki_fp_filters" "LQFP64-10x10mm" (id 4) (at 0 0 0)
      (effects (font (size 1.27 1.27)) hide)
    )
    (symbol "STM32L073RBT6_1_1"
      (polyline
        (pts
          (xy 5.5372 -66.548)
          (xy 4.4958 -66.04)
        )
        (stroke (width 0.127) (type default) (color 0 0 0 0))
        (fill (type none))
      )
      (polyline
        (pts
          (xy 5.5372 -65.532)
          (xy 4.4958 -66.04)
        )
        (stroke (width 0.127) (type default) (color 0 0 0 0))
        (fill (type none))
      )
      (polyline
        (pts
          (xy 5.5372 -64.008)
          (xy 4.4958 -63.5)
        )
        (stroke (width 0.127) (type default) (color 0 0 0 0))
        (fill (type none))
      )
      (polyline
        (pts
          (xy 5.5372 -62.992)
          (xy 4.4958 -63.5)
        )
        (stroke (width 0.127) (type default) (color 0 0 0 0))
        (fill (type none))
      )
      (polyline
        (pts
          (xy 5.5372 -58.928)
          (xy 4.4958 -58.42)
        )
        (stroke (width 0.127) (type default) (color 0 0 0 0))
        (fill (type none))
      )
      (polyline
        (pts
          (xy 5.5372 -57.912)
          (xy 4.4958 -58.42)
        )
        (stroke (width 0.127) (type default) (color 0 0 0 0))
        (fill (type none))
      )
      (polyline
        (pts
          (xy 5.5372 -56.388)
          (xy 4.4958 -55.88)
        )
        (stroke (width 0.127) (type default) (color 0 0 0 0))
        (fill (type none))
      )
      (polyline
        (pts
          (xy 5.5372 -55.372)
          (xy 4.4958 -55.88)
        )
        (stroke (width 0.127) (type default) (color 0 0 0 0))
        (fill (type none))
      )
      (polyline
        (pts
          (xy 5.5372 -51.308)
          (xy 4.4958 -50.8)
        )
        (stroke (width 0.127) (type default) (color 0 0 0 0))
        (fill (type none))
      )
      (polyline
        (pts
          (xy 5.5372 -50.292)
          (xy 4.4958 -50.8)
        )
        (stroke (width 0.127) (type default) (color 0 0 0 0))
        (fill (type none))
      )
      (polyline
        (pts
          (xy 5.5372 -48.768)
          (xy 4.4958 -48.26)
        )
        (stroke (width 0.127) (type default) (color 0 0 0 0))
        (fill (type none))
      )
      (polyline
        (pts
          (xy 5.5372 -47.752)
          (xy 4.4958 -48.26)
        )
        (stroke (width 0.127) (type default) (color 0 0 0 0))
        (fill (type none))
      )
      (polyline
        (pts
          (xy 5.5372 -46.228)
          (xy 4.4958 -45.72)
        )
        (stroke (width 0.127) (type default) (color 0 0 0 0))
        (fill (type none))
      )
      (polyline
        (pts
          (xy 5.5372 -45.212)
          (xy 4.4958 -45.72)
        )
        (stroke (width 0.127) (type default) (color 0 0 0 0))
        (fill (type none))
      )
      (polyline
        (pts
          (xy 5.5372 -43.688)
          (xy 4.4958 -43.18)
        )
        (stroke (width 0.127) (type default) (color 0 0 0 0))
        (fill (type none))
      )
      (polyline
        (pts
          (xy 5.5372 -42.672)
          (xy 4.4958 -43.18)
        )
        (stroke (width 0.127) (type default) (color 0 0 0 0))
        (fill (type none))
      )
      (polyline
        (pts
          (xy 5.5372 -41.148)
          (xy 4.4958 -40.64)
        )
        (stroke (width 0.127) (type default) (color 0 0 0 0))
        (fill (type none))
      )
      (polyline
        (pts
          (xy 5.5372 -40.132)
          (xy 4.4958 -40.64)
        )
        (stroke (width 0.127) (type default) (color 0 0 0 0))
        (fill (type none))
      )
      (polyline
        (pts
          (xy 5.5372 -38.608)
          (xy 4.4958 -38.1)
        )
        (stroke (width 0.127) (type default) (color 0 0 0 0))
        (fill (type none))
      )
      (polyline
        (pts
          (xy 5.5372 -37.592)
          (xy 4.4958 -38.1)
        )
        (stroke (width 0.127) (type default) (color 0 0 0 0))
        (fill (type none))
      )
      (polyline
        (pts
          (xy 5.5372 -36.068)
          (xy 4.4958 -35.56)
        )
        (stroke (width 0.127) (type default) (color 0 0 0 0))
        (fill (type none))
      )
      (polyline
        (pts
          (xy 5.5372 -35.052)
          (xy 4.4958 -35.56)
        )
        (stroke (width 0.127) (type default) (color 0 0 0 0))
        (fill (type none))
      )
      (polyline
        (pts
          (xy 5.5372 -33.528)
          (xy 4.4958 -33.02)
        )
        (stroke (width 0.127) (type default) (color 0 0 0 0))
        (fill (type none))
      )
      (polyline
        (pts
          (xy 5.5372 -32.512)
          (xy 4.4958 -33.02)
        )
        (stroke (width 0.127) (type default) (color 0 0 0 0))
        (fill (type none))
      )
      (polyline
        (pts
          (xy 5.5372 -30.988)
          (xy 4.4958 -30.48)
        )
        (stroke (width 0.127) (type default) (color 0 0 0 0))
        (fill (type none))
      )
      (polyline
        (pts
          (xy 5.5372 -29.972)
          (xy 4.4958 -30.48)
        )
        (stroke (width 0.127) (type default) (color 0 0 0 0))
        (fill (type none))
      )
      (polyline
        (pts
          (xy 5.5372 -28.448)
          (xy 4.4958 -27.94)
        )
        (stroke (width 0.127) (type default) (color 0 0 0 0))
        (fill (type none))
      )
      (polyline
        (pts
          (xy 5.5372 -27.432)
          (xy 4.4958 -27.94)
        )
        (stroke (width 0.127) (type default) (color 0 0 0 0))
        (fill (type none))
      )
      (polyline
        (pts
          (xy 5.5372 -25.908)
          (xy 4.4958 -25.4)
        )
        (stroke (width 0.127) (type default) (color 0 0 0 0))
        (fill (type none))
      )
      (polyline
        (pts
          (xy 5.5372 -24.892)
          (xy 4.4958 -25.4)
        )
        (stroke (width 0.127) (type default) (color 0 0 0 0))
        (fill (type none))
      )
      (polyline
        (pts
          (xy 5.5372 -23.368)
          (xy 4.4958 -22.86)
        )
        (stroke (width 0.127) (type default) (color 0 0 0 0))
        (fill (type none))
      )
      (polyline
        (pts
          (xy 5.5372 -22.352)
          (xy 4.4958 -22.86)
        )
        (stroke (width 0.127) (type default) (color 0 0 0 0))
        (fill (type none))
      )
      (polyline
        (pts
          (xy 5.5372 -20.828)
          (xy 4.4958 -20.32)
        )
        (stroke (width 0.127) (type default) (color 0 0 0 0))
        (fill (type none))
      )
      (polyline
        (pts
          (xy 5.5372 -19.812)
          (xy 4.4958 -20.32)
        )
        (stroke (width 0.127) (type default) (color 0 0 0 0))
        (fill (type none))
      )
      (polyline
        (pts
          (xy 5.5372 -18.288)
          (xy 4.4958 -17.78)
        )
        (stroke (width 0.127) (type default) (color 0 0 0 0))
        (fill (type none))
      )
      (polyline
        (pts
          (xy 5.5372 -17.272)
          (xy 4.4958 -17.78)
        )
        (stroke (width 0.127) (type default) (color 0 0 0 0))
        (fill (type none))
      )
      (polyline
        (pts
          (xy 5.5372 -15.748)
          (xy 4.4958 -15.24)
        )
        (stroke (width 0.127) (type default) (color 0 0 0 0))
        (fill (type none))
      )
      (polyline
        (pts
          (xy 5.5372 -14.732)
          (xy 4.4958 -15.24)
        )
        (stroke (width 0.127) (type default) (color 0 0 0 0))
        (fill (type none))
      )
      (polyline
        (pts
          (xy 5.5372 -13.208)
          (xy 4.4958 -12.7)
        )
        (stroke (width 0.127) (type default) (color 0 0 0 0))
        (fill (type none))
      )
      (polyline
        (pts
          (xy 5.5372 -12.192)
          (xy 4.4958 -12.7)
        )
        (stroke (width 0.127) (type default) (color 0 0 0 0))
        (fill (type none))
      )
      (polyline
        (pts
          (xy 5.5372 -10.668)
          (xy 4.4958 -10.16)
        )
        (stroke (width 0.127) (type default) (color 0 0 0 0))
        (fill (type none))
      )
      (polyline
        (pts
          (xy 5.5372 -9.652)
          (xy 4.4958 -10.16)
        )
        (stroke (width 0.127) (type default) (color 0 0 0 0))
        (fill (type none))
      )
      (polyline
        (pts
          (xy 5.5372 -5.588)
          (xy 4.4958 -5.08)
        )
        (stroke (width 0.127) (type default) (color 0 0 0 0))
        (fill (type none))
      )
      (polyline
        (pts
          (xy 5.5372 -4.572)
          (xy 4.4958 -5.08)
        )
        (stroke (width 0.127) (type default) (color 0 0 0 0))
        (fill (type none))
      )
      (polyline
        (pts
          (xy 7.112 -66.04)
          (xy 6.0452 -66.548)
        )
        (stroke (width 0.127) (type default) (color 0 0 0 0))
        (fill (type none))
      )
      (polyline
        (pts
          (xy 7.112 -66.04)
          (xy 6.0452 -65.532)
        )
        (stroke (width 0.127) (type default) (color 0 0 0 0))
        (fill (type none))
      )
      (polyline
        (pts
          (xy 7.112 -63.5)
          (xy 6.0452 -64.008)
        )
        (stroke (width 0.127) (type default) (color 0 0 0 0))
        (fill (type none))
      )
      (polyline
        (pts
          (xy 7.112 -63.5)
          (xy 6.0452 -62.992)
        )
        (stroke (width 0.127) (type default) (color 0 0 0 0))
        (fill (type none))
      )
      (polyline
        (pts
          (xy 7.112 -58.42)
          (xy 6.0452 -58.928)
        )
        (stroke (width 0.127) (type default) (color 0 0 0 0))
        (fill (type none))
      )
      (polyline
        (pts
          (xy 7.112 -58.42)
          (xy 6.0452 -57.912)
        )
        (stroke (width 0.127) (type default) (color 0 0 0 0))
        (fill (type none))
      )
      (polyline
        (pts
          (xy 7.112 -55.88)
          (xy 6.0452 -56.388)
        )
        (stroke (width 0.127) (type default) (color 0 0 0 0))
        (fill (type none))
      )
      (polyline
        (pts
          (xy 7.112 -55.88)
          (xy 6.0452 -55.372)
        )
        (stroke (width 0.127) (type default) (color 0 0 0 0))
        (fill (type none))
      )
      (polyline
        (pts
          (xy 7.112 -50.8)
          (xy 6.0452 -51.308)
        )
        (stroke (width 0.127) (type default) (color 0 0 0 0))
        (fill (type none))
      )
      (polyline
        (pts
          (xy 7.112 -50.8)
          (xy 6.0452 -50.292)
        )
        (stroke (width 0.127) (type default) (color 0 0 0 0))
        (fill (type none))
      )
      (polyline
        (pts
          (xy 7.112 -48.26)
          (xy 6.0452 -48.768)
        )
        (stroke (width 0.127) (type default) (color 0 0 0 0))
        (fill (type none))
      )
      (polyline
        (pts
          (xy 7.112 -48.26)
          (xy 6.0452 -47.752)
        )
        (stroke (width 0.127) (type default) (color 0 0 0 0))
        (fill (type none))
      )
      (polyline
        (pts
          (xy 7.112 -45.72)
          (xy 6.0452 -46.228)
        )
        (stroke (width 0.127) (type default) (color 0 0 0 0))
        (fill (type none))
      )
      (polyline
        (pts
          (xy 7.112 -45.72)
          (xy 6.0452 -45.212)
        )
        (stroke (width 0.127) (type default) (color 0 0 0 0))
        (fill (type none))
      )
      (polyline
        (pts
          (xy 7.112 -43.18)
          (xy 6.0452 -43.688)
        )
        (stroke (width 0.127) (type default) (color 0 0 0 0))
        (fill (type none))
      )
      (polyline
        (pts
          (xy 7.112 -43.18)
          (xy 6.0452 -42.672)
        )
        (stroke (width 0.127) (type default) (color 0 0 0 0))
        (fill (type none))
      )
      (polyline
        (pts
          (xy 7.112 -40.64)
          (xy 6.0452 -41.148)
        )
        (stroke (width 0.127) (type default) (color 0 0 0 0))
        (fill (type none))
      )
      (polyline
        (pts
          (xy 7.112 -40.64)
          (xy 6.0452 -40.132)
        )
        (stroke (width 0.127) (type default) (color 0 0 0 0))
        (fill (type none))
      )
      (polyline
        (pts
          (xy 7.112 -38.1)
          (xy 6.0452 -38.608)
        )
        (stroke (width 0.127) (type default) (color 0 0 0 0))
        (fill (type none))
      )
      (polyline
        (pts
          (xy 7.112 -38.1)
          (xy 6.0452 -37.592)
        )
        (stroke (width 0.127) (type default) (color 0 0 0 0))
        (fill (type none))
      )
      (polyline
        (pts
          (xy 7.112 -35.56)
          (xy 6.0452 -36.068)
        )
        (stroke (width 0.127) (type default) (color 0 0 0 0))
        (fill (type none))
      )
      (polyline
        (pts
          (xy 7.112 -35.56)
          (xy 6.0452 -35.052)
        )
        (stroke (width 0.127) (type default) (color 0 0 0 0))
        (fill (type none))
      )
      (polyline
        (pts
          (xy 7.112 -33.02)
          (xy 6.0452 -33.528)
        )
        (stroke (width 0.127) (type default) (color 0 0 0 0))
        (fill (type none))
      )
      (polyline
        (pts
          (xy 7.112 -33.02)
          (xy 6.0452 -32.512)
        )
        (stroke (width 0.127) (type default) (color 0 0 0 0))
        (fill (type none))
      )
      (polyline
        (pts
          (xy 7.112 -30.48)
          (xy 6.0452 -30.988)
        )
        (stroke (width 0.127) (type default) (color 0 0 0 0))
        (fill (type none))
      )
      (polyline
        (pts
          (xy 7.112 -30.48)
          (xy 6.0452 -29.972)
        )
        (stroke (width 0.127) (type default) (color 0 0 0 0))
        (fill (type none))
      )
      (polyline
        (pts
          (xy 7.112 -27.94)
          (xy 6.0452 -28.448)
        )
        (stroke (width 0.127) (type default) (color 0 0 0 0))
        (fill (type none))
      )
      (polyline
        (pts
          (xy 7.112 -27.94)
          (xy 6.0452 -27.432)
        )
        (stroke (width 0.127) (type default) (color 0 0 0 0))
        (fill (type none))
      )
      (polyline
        (pts
          (xy 7.112 -25.4)
          (xy 6.0452 -25.908)
        )
        (stroke (width 0.127) (type default) (color 0 0 0 0))
        (fill (type none))
      )
      (polyline
        (pts
          (xy 7.112 -25.4)
          (xy 6.0452 -24.892)
        )
        (stroke (width 0.127) (type default) (color 0 0 0 0))
        (fill (type none))
      )
      (polyline
        (pts
          (xy 7.112 -22.86)
          (xy 6.0452 -23.368)
        )
        (stroke (width 0.127) (type default) (color 0 0 0 0))
        (fill (type none))
      )
      (polyline
        (pts
          (xy 7.112 -22.86)
          (xy 6.0452 -22.352)
        )
        (stroke (width 0.127) (type default) (color 0 0 0 0))
        (fill (type none))
      )
      (polyline
        (pts
          (xy 7.112 -20.32)
          (xy 6.0452 -20.828)
        )
        (stroke (width 0.127) (type default) (color 0 0 0 0))
        (fill (type none))
      )
      (polyline
        (pts
          (xy 7.112 -20.32)
          (xy 6.0452 -19.812)
        )
        (stroke (width 0.127) (type default) (color 0 0 0 0))
        (fill (type none))
      )
      (polyline
        (pts
          (xy 7.112 -17.78)
          (xy 6.0452 -18.288)
        )
        (stroke (width 0.127) (type default) (color 0 0 0 0))
        (fill (type none))
      )
      (polyline
        (pts
          (xy 7.112 -17.78)
          (xy 6.0452 -17.272)
        )
        (stroke (width 0.127) (type default) (color 0 0 0 0))
        (fill (type none))
      )
      (polyline
        (pts
          (xy 7.112 -15.24)
          (xy 6.0452 -15.748)
        )
        (stroke (width 0.127) (type default) (color 0 0 0 0))
        (fill (type none))
      )
      (polyline
        (pts
          (xy 7.112 -15.24)
          (xy 6.0452 -14.732)
        )
        (stroke (width 0.127) (type default) (color 0 0 0 0))
        (fill (type none))
      )
      (polyline
        (pts
          (xy 7.112 -12.7)
          (xy 6.0452 -13.208)
        )
        (stroke (width 0.127) (type default) (color 0 0 0 0))
        (fill (type none))
      )
      (polyline
        (pts
          (xy 7.112 -12.7)
          (xy 6.0452 -12.192)
        )
        (stroke (width 0.127) (type default) (color 0 0 0 0))
        (fill (type none))
      )
      (polyline
        (pts
          (xy 7.112 -10.16)
          (xy 6.0452 -10.668)
        )
        (stroke (width 0.127) (type default) (color 0 0 0 0))
        (fill (type none))
      )
      (polyline
        (pts
          (xy 7.112 -10.16)
          (xy 6.0452 -9.652)
        )
        (stroke (width 0.127) (type default) (color 0 0 0 0))
        (fill (type none))
      )
      (polyline
        (pts
          (xy 7.112 -5.08)
          (xy 6.0452 -5.588)
        )
        (stroke (width 0.127) (type default) (color 0 0 0 0))
        (fill (type none))
      )
      (polyline
        (pts
          (xy 7.112 -5.08)
          (xy 6.0452 -4.572)
        )
        (stroke (width 0.127) (type default) (color 0 0 0 0))
        (fill (type none))
      )
      (polyline
        (pts
          (xy 7.112 0)
          (xy 6.0452 -0.508)
        )
        (stroke (width 0.127) (type default) (color 0 0 0 0))
        (fill (type none))
      )
      (polyline
        (pts
          (xy 7.112 0)
          (xy 6.0452 0.508)
        )
        (stroke (width 0.127) (type default) (color 0 0 0 0))
        (fill (type none))
      )
      (polyline
        (pts
          (xy 7.62 -91.44)
          (xy 68.58 -91.44)
        )
        (stroke (width 0.127) (type default) (color 0 0 0 0))
        (fill (type none))
      )
      (polyline
        (pts
          (xy 7.62 5.08)
          (xy 7.62 -91.44)
        )
        (stroke (width 0.127) (type default) (color 0 0 0 0))
        (fill (type none))
      )
      (polyline
        (pts
          (xy 68.58 -91.44)
          (xy 68.58 5.08)
        )
        (stroke (width 0.127) (type default) (color 0 0 0 0))
        (fill (type none))
      )
      (polyline
        (pts
          (xy 68.58 5.08)
          (xy 7.62 5.08)
        )
        (stroke (width 0.127) (type default) (color 0 0 0 0))
        (fill (type none))
      )
      (polyline
        (pts
          (xy 69.088 -82.55)
          (xy 70.1548 -83.058)
        )
        (stroke (width 0.127) (type default) (color 0 0 0 0))
        (fill (type none))
      )
      (polyline
        (pts
          (xy 69.088 -82.55)
          (xy 70.1548 -82.042)
        )
        (stroke (width 0.127) (type default) (color 0 0 0 0))
        (fill (type none))
      )
      (polyline
        (pts
          (xy 69.088 -80.01)
          (xy 70.1548 -80.518)
        )
        (stroke (width 0.127) (type default) (color 0 0 0 0))
        (fill (type none))
      )
      (polyline
        (pts
          (xy 69.088 -80.01)
          (xy 70.1548 -79.502)
        )
        (stroke (width 0.127) (type default) (color 0 0 0 0))
        (fill (type none))
      )
      (polyline
        (pts
          (xy 69.088 -77.47)
          (xy 70.1548 -77.978)
        )
        (stroke (width 0.127) (type default) (color 0 0 0 0))
        (fill (type none))
      )
      (polyline
        (pts
          (xy 69.088 -77.47)
          (xy 70.1548 -76.962)
        )
        (stroke (width 0.127) (type default) (color 0 0 0 0))
        (fill (type none))
      )
      (polyline
        (pts
          (xy 69.088 -74.93)
          (xy 70.1548 -75.438)
        )
        (stroke (width 0.127) (type default) (color 0 0 0 0))
        (fill (type none))
      )
      (polyline
        (pts
          (xy 69.088 -74.93)
          (xy 70.1548 -74.422)
        )
        (stroke (width 0.127) (type default) (color 0 0 0 0))
        (fill (type none))
      )
      (polyline
        (pts
          (xy 69.088 -72.39)
          (xy 70.1548 -72.898)
        )
        (stroke (width 0.127) (type default) (color 0 0 0 0))
        (fill (type none))
      )
      (polyline
        (pts
          (xy 69.088 -72.39)
          (xy 70.1548 -71.882)
        )
        (stroke (width 0.127) (type default) (color 0 0 0 0))
        (fill (type none))
      )
      (polyline
        (pts
          (xy 69.088 -69.85)
          (xy 70.1548 -70.358)
        )
        (stroke (width 0.127) (type default) (color 0 0 0 0))
        (fill (type none))
      )
      (polyline
        (pts
          (xy 69.088 -69.85)
          (xy 70.1548 -69.342)
        )
        (stroke (width 0.127) (type default) (color 0 0 0 0))
        (fill (type none))
      )
      (polyline
        (pts
          (xy 69.088 -67.31)
          (xy 70.1548 -67.818)
        )
        (stroke (width 0.127) (type default) (color 0 0 0 0))
        (fill (type none))
      )
      (polyline
        (pts
          (xy 69.088 -67.31)
          (xy 70.1548 -66.802)
        )
        (stroke (width 0.127) (type default) (color 0 0 0 0))
        (fill (type none))
      )
      (polyline
        (pts
          (xy 69.088 -64.77)
          (xy 70.1548 -65.278)
        )
        (stroke (width 0.127) (type default) (color 0 0 0 0))
        (fill (type none))
      )
      (polyline
        (pts
          (xy 69.088 -64.77)
          (xy 70.1548 -64.262)
        )
        (stroke (width 0.127) (type default) (color 0 0 0 0))
        (fill (type none))
      )
      (polyline
        (pts
          (xy 69.088 -62.23)
          (xy 70.1548 -62.738)
        )
        (stroke (width 0.127) (type default) (color 0 0 0 0))
        (fill (type none))
      )
      (polyline
        (pts
          (xy 69.088 -62.23)
          (xy 70.1548 -61.722)
        )
        (stroke (width 0.127) (type default) (color 0 0 0 0))
        (fill (type none))
      )
      (polyline
        (pts
          (xy 69.088 -59.69)
          (xy 70.1548 -60.198)
        )
        (stroke (width 0.127) (type default) (color 0 0 0 0))
        (fill (type none))
      )
      (polyline
        (pts
          (xy 69.088 -59.69)
          (xy 70.1548 -59.182)
        )
        (stroke (width 0.127) (type default) (color 0 0 0 0))
        (fill (type none))
      )
      (polyline
        (pts
          (xy 69.088 -57.15)
          (xy 70.1548 -57.658)
        )
        (stroke (width 0.127) (type default) (color 0 0 0 0))
        (fill (type none))
      )
      (polyline
        (pts
          (xy 69.088 -57.15)
          (xy 70.1548 -56.642)
        )
        (stroke (width 0.127) (type default) (color 0 0 0 0))
        (fill (type none))
      )
      (polyline
        (pts
          (xy 69.088 -54.61)
          (xy 70.1548 -55.118)
        )
        (stroke (width 0.127) (type default) (color 0 0 0 0))
        (fill (type none))
      )
      (polyline
        (pts
          (xy 69.088 -54.61)
          (xy 70.1548 -54.102)
        )
        (stroke (width 0.127) (type default) (color 0 0 0 0))
        (fill (type none))
      )
      (polyline
        (pts
          (xy 69.088 -52.07)
          (xy 70.1548 -52.578)
        )
        (stroke (width 0.127) (type default) (color 0 0 0 0))
        (fill (type none))
      )
      (polyline
        (pts
          (xy 69.088 -52.07)
          (xy 70.1548 -51.562)
        )
        (stroke (width 0.127) (type default) (color 0 0 0 0))
        (fill (type none))
      )
      (polyline
        (pts
          (xy 69.088 -49.53)
          (xy 70.1548 -50.038)
        )
        (stroke (width 0.127) (type default) (color 0 0 0 0))
        (fill (type none))
      )
      (polyline
        (pts
          (xy 69.088 -49.53)
          (xy 70.1548 -49.022)
        )
        (stroke (width 0.127) (type default) (color 0 0 0 0))
        (fill (type none))
      )
      (polyline
        (pts
          (xy 69.088 -41.91)
          (xy 70.1548 -42.418)
        )
        (stroke (width 0.127) (type default) (color 0 0 0 0))
        (fill (type none))
      )
      (polyline
        (pts
          (xy 69.088 -41.91)
          (xy 70.1548 -41.402)
        )
        (stroke (width 0.127) (type default) (color 0 0 0 0))
        (fill (type none))
      )
      (polyline
        (pts
          (xy 69.088 -39.37)
          (xy 70.1548 -39.878)
        )
        (stroke (width 0.127) (type default) (color 0 0 0 0))
        (fill (type none))
      )
      (polyline
        (pts
          (xy 69.088 -39.37)
          (xy 70.1548 -38.862)
        )
        (stroke (width 0.127) (type default) (color 0 0 0 0))
        (fill (type none))
      )
      (polyline
        (pts
          (xy 69.088 -36.83)
          (xy 70.1548 -37.338)
        )
        (stroke (width 0.127) (type default) (color 0 0 0 0))
        (fill (type none))
      )
      (polyline
        (pts
          (xy 69.088 -36.83)
          (xy 70.1548 -36.322)
        )
        (stroke (width 0.127) (type default) (color 0 0 0 0))
        (fill (type none))
      )
      (polyline
        (pts
          (xy 69.088 -34.29)
          (xy 70.1548 -34.798)
        )
        (stroke (width 0.127) (type default) (color 0 0 0 0))
        (fill (type none))
      )
      (polyline
        (pts
          (xy 69.088 -34.29)
          (xy 70.1548 -33.782)
        )
        (stroke (width 0.127) (type default) (color 0 0 0 0))
        (fill (type none))
      )
      (polyline
        (pts
          (xy 69.088 -31.75)
          (xy 70.1548 -32.258)
        )
        (stroke (width 0.127) (type default) (color 0 0 0 0))
        (fill (type none))
      )
      (polyline
        (pts
          (xy 69.088 -31.75)
          (xy 70.1548 -31.242)
        )
        (stroke (width 0.127) (type default) (color 0 0 0 0))
        (fill (type none))
      )
      (polyline
        (pts
          (xy 69.088 -29.21)
          (xy 70.1548 -29.718)
        )
        (stroke (width 0.127) (type default) (color 0 0 0 0))
        (fill (type none))
      )
      (polyline
        (pts
          (xy 69.088 -29.21)
          (xy 70.1548 -28.702)
        )
        (stroke (width 0.127) (type default) (color 0 0 0 0))
        (fill (type none))
      )
      (polyline
        (pts
          (xy 69.088 -26.67)
          (xy 70.1548 -27.178)
        )
        (stroke (width 0.127) (type default) (color 0 0 0 0))
        (fill (type none))
      )
      (polyline
        (pts
          (xy 69.088 -26.67)
          (xy 70.1548 -26.162)
        )
        (stroke (width 0.127) (type default) (color 0 0 0 0))
        (fill (type none))
      )
      (polyline
        (pts
          (xy 69.088 -24.13)
          (xy 70.1548 -24.638)
        )
        (stroke (width 0.127) (type default) (color 0 0 0 0))
        (fill (type none))
      )
      (polyline
        (pts
          (xy 69.088 -24.13)
          (xy 70.1548 -23.622)
        )
        (stroke (width 0.127) (type default) (color 0 0 0 0))
        (fill (type none))
      )
      (polyline
        (pts
          (xy 69.088 -21.59)
          (xy 70.1548 -22.098)
        )
        (stroke (width 0.127) (type default) (color 0 0 0 0))
        (fill (type none))
      )
      (polyline
        (pts
          (xy 69.088 -21.59)
          (xy 70.1548 -21.082)
        )
        (stroke (width 0.127) (type default) (color 0 0 0 0))
        (fill (type none))
      )
      (polyline
        (pts
          (xy 69.088 -19.05)
          (xy 70.1548 -19.558)
        )
        (stroke (width 0.127) (type default) (color 0 0 0 0))
        (fill (type none))
      )
      (polyline
        (pts
          (xy 69.088 -19.05)
          (xy 70.1548 -18.542)
        )
        (stroke (width 0.127) (type default) (color 0 0 0 0))
        (fill (type none))
      )
      (polyline
        (pts
          (xy 69.088 -16.51)
          (xy 70.1548 -17.018)
        )
        (stroke (width 0.127) (type default) (color 0 0 0 0))
        (fill (type none))
      )
      (polyline
        (pts
          (xy 69.088 -16.51)
          (xy 70.1548 -16.002)
        )
        (stroke (width 0.127) (type default) (color 0 0 0 0))
        (fill (type none))
      )
      (polyline
        (pts
          (xy 69.088 -13.97)
          (xy 70.1548 -14.478)
        )
        (stroke (width 0.127) (type default) (color 0 0 0 0))
        (fill (type none))
      )
      (polyline
        (pts
          (xy 69.088 -13.97)
          (xy 70.1548 -13.462)
        )
        (stroke (width 0.127) (type default) (color 0 0 0 0))
        (fill (type none))
      )
      (polyline
        (pts
          (xy 69.088 -11.43)
          (xy 70.1548 -11.938)
        )
        (stroke (width 0.127) (type default) (color 0 0 0 0))
        (fill (type none))
      )
      (polyline
        (pts
          (xy 69.088 -11.43)
          (xy 70.1548 -10.922)
        )
        (stroke (width 0.127) (type default) (color 0 0 0 0))
        (fill (type none))
      )
      (polyline
        (pts
          (xy 69.088 -8.89)
          (xy 70.1548 -9.398)
        )
        (stroke (width 0.127) (type default) (color 0 0 0 0))
        (fill (type none))
      )
      (polyline
        (pts
          (xy 69.088 -8.89)
          (xy 70.1548 -8.382)
        )
        (stroke (width 0.127) (type default) (color 0 0 0 0))
        (fill (type none))
      )
      (polyline
        (pts
          (xy 69.088 -6.35)
          (xy 70.1548 -6.858)
        )
        (stroke (width 0.127) (type default) (color 0 0 0 0))
        (fill (type none))
      )
      (polyline
        (pts
          (xy 69.088 -6.35)
          (xy 70.1548 -5.842)
        )
        (stroke (width 0.127) (type default) (color 0 0 0 0))
        (fill (type none))
      )
      (polyline
        (pts
          (xy 69.088 -3.81)
          (xy 70.1548 -4.318)
        )
        (stroke (width 0.127) (type default) (color 0 0 0 0))
        (fill (type none))
      )
      (polyline
        (pts
          (xy 69.088 -3.81)
          (xy 70.1548 -3.302)
        )
        (stroke (width 0.127) (type default) (color 0 0 0 0))
        (fill (type none))
      )
      (polyline
        (pts
          (xy 70.6628 -83.058)
          (xy 71.7042 -82.55)
        )
        (stroke (width 0.127) (type default) (color 0 0 0 0))
        (fill (type none))
      )
      (polyline
        (pts
          (xy 70.6628 -82.042)
          (xy 71.7042 -82.55)
        )
        (stroke (width 0.127) (type default) (color 0 0 0 0))
        (fill (type none))
      )
      (polyline
        (pts
          (xy 70.6628 -80.518)
          (xy 71.7042 -80.01)
        )
        (stroke (width 0.127) (type default) (color 0 0 0 0))
        (fill (type none))
      )
      (polyline
        (pts
          (xy 70.6628 -79.502)
          (xy 71.7042 -80.01)
        )
        (stroke (width 0.127) (type default) (color 0 0 0 0))
        (fill (type none))
      )
      (polyline
        (pts
          (xy 70.6628 -77.978)
          (xy 71.7042 -77.47)
        )
        (stroke (width 0.127) (type default) (color 0 0 0 0))
        (fill (type none))
      )
      (polyline
        (pts
          (xy 70.6628 -76.962)
          (xy 71.7042 -77.47)
        )
        (stroke (width 0.127) (type default) (color 0 0 0 0))
        (fill (type none))
      )
      (polyline
        (pts
          (xy 70.6628 -75.438)
          (xy 71.7042 -74.93)
        )
        (stroke (width 0.127) (type default) (color 0 0 0 0))
        (fill (type none))
      )
      (polyline
        (pts
          (xy 70.6628 -74.422)
          (xy 71.7042 -74.93)
        )
        (stroke (width 0.127) (type default) (color 0 0 0 0))
        (fill (type none))
      )
      (polyline
        (pts
          (xy 70.6628 -72.898)
          (xy 71.7042 -72.39)
        )
        (stroke (width 0.127) (type default) (color 0 0 0 0))
        (fill (type none))
      )
      (polyline
        (pts
          (xy 70.6628 -71.882)
          (xy 71.7042 -72.39)
        )
        (stroke (width 0.127) (type default) (color 0 0 0 0))
        (fill (type none))
      )
      (polyline
        (pts
          (xy 70.6628 -70.358)
          (xy 71.7042 -69.85)
        )
        (stroke (width 0.127) (type default) (color 0 0 0 0))
        (fill (type none))
      )
      (polyline
        (pts
          (xy 70.6628 -69.342)
          (xy 71.7042 -69.85)
        )
        (stroke (width 0.127) (type default) (color 0 0 0 0))
        (fill (type none))
      )
      (polyline
        (pts
          (xy 70.6628 -67.818)
          (xy 71.7042 -67.31)
        )
        (stroke (width 0.127) (type default) (color 0 0 0 0))
        (fill (type none))
      )
      (polyline
        (pts
          (xy 70.6628 -66.802)
          (xy 71.7042 -67.31)
        )
        (stroke (width 0.127) (type default) (color 0 0 0 0))
        (fill (type none))
      )
      (polyline
        (pts
          (xy 70.6628 -65.278)
          (xy 71.7042 -64.77)
        )
        (stroke (width 0.127) (type default) (color 0 0 0 0))
        (fill (type none))
      )
      (polyline
        (pts
          (xy 70.6628 -64.262)
          (xy 71.7042 -64.77)
        )
        (stroke (width 0.127) (type default) (color 0 0 0 0))
        (fill (type none))
      )
      (polyline
        (pts
          (xy 70.6628 -62.738)
          (xy 71.7042 -62.23)
        )
        (stroke (width 0.127) (type default) (color 0 0 0 0))
        (fill (type none))
      )
      (polyline
        (pts
          (xy 70.6628 -61.722)
          (xy 71.7042 -62.23)
        )
        (stroke (width 0.127) (type default) (color 0 0 0 0))
        (fill (type none))
      )
      (polyline
        (pts
          (xy 70.6628 -60.198)
          (xy 71.7042 -59.69)
        )
        (stroke (width 0.127) (type default) (color 0 0 0 0))
        (fill (type none))
      )
      (polyline
        (pts
          (xy 70.6628 -59.182)
          (xy 71.7042 -59.69)
        )
        (stroke (width 0.127) (type default) (color 0 0 0 0))
        (fill (type none))
      )
      (polyline
        (pts
          (xy 70.6628 -57.658)
          (xy 71.7042 -57.15)
        )
        (stroke (width 0.127) (type default) (color 0 0 0 0))
        (fill (type none))
      )
      (polyline
        (pts
          (xy 70.6628 -56.642)
          (xy 71.7042 -57.15)
        )
        (stroke (width 0.127) (type default) (color 0 0 0 0))
        (fill (type none))
      )
      (polyline
        (pts
          (xy 70.6628 -55.118)
          (xy 71.7042 -54.61)
        )
        (stroke (width 0.127) (type default) (color 0 0 0 0))
        (fill (type none))
      )
      (polyline
        (pts
          (xy 70.6628 -54.102)
          (xy 71.7042 -54.61)
        )
        (stroke (width 0.127) (type default) (color 0 0 0 0))
        (fill (type none))
      )
      (polyline
        (pts
          (xy 70.6628 -52.578)
          (xy 71.7042 -52.07)
        )
        (stroke (width 0.127) (type default) (color 0 0 0 0))
        (fill (type none))
      )
      (polyline
        (pts
          (xy 70.6628 -51.562)
          (xy 71.7042 -52.07)
        )
        (stroke (width 0.127) (type default) (color 0 0 0 0))
        (fill (type none))
      )
      (polyline
        (pts
          (xy 70.6628 -50.038)
          (xy 71.7042 -49.53)
        )
        (stroke (width 0.127) (type default) (color 0 0 0 0))
        (fill (type none))
      )
      (polyline
        (pts
          (xy 70.6628 -49.022)
          (xy 71.7042 -49.53)
        )
        (stroke (width 0.127) (type default) (color 0 0 0 0))
        (fill (type none))
      )
      (polyline
        (pts
          (xy 70.6628 -42.418)
          (xy 71.7042 -41.91)
        )
        (stroke (width 0.127) (type default) (color 0 0 0 0))
        (fill (type none))
      )
      (polyline
        (pts
          (xy 70.6628 -41.402)
          (xy 71.7042 -41.91)
        )
        (stroke (width 0.127) (type default) (color 0 0 0 0))
        (fill (type none))
      )
      (polyline
        (pts
          (xy 70.6628 -39.878)
          (xy 71.7042 -39.37)
        )
        (stroke (width 0.127) (type default) (color 0 0 0 0))
        (fill (type none))
      )
      (polyline
        (pts
          (xy 70.6628 -38.862)
          (xy 71.7042 -39.37)
        )
        (stroke (width 0.127) (type default) (color 0 0 0 0))
        (fill (type none))
      )
      (polyline
        (pts
          (xy 70.6628 -37.338)
          (xy 71.7042 -36.83)
        )
        (stroke (width 0.127) (type default) (color 0 0 0 0))
        (fill (type none))
      )
      (polyline
        (pts
          (xy 70.6628 -36.322)
          (xy 71.7042 -36.83)
        )
        (stroke (width 0.127) (type default) (color 0 0 0 0))
        (fill (type none))
      )
      (polyline
        (pts
          (xy 70.6628 -34.798)
          (xy 71.7042 -34.29)
        )
        (stroke (width 0.127) (type default) (color 0 0 0 0))
        (fill (type none))
      )
      (polyline
        (pts
          (xy 70.6628 -33.782)
          (xy 71.7042 -34.29)
        )
        (stroke (width 0.127) (type default) (color 0 0 0 0))
        (fill (type none))
      )
      (polyline
        (pts
          (xy 70.6628 -32.258)
          (xy 71.7042 -31.75)
        )
        (stroke (width 0.127) (type default) (color 0 0 0 0))
        (fill (type none))
      )
      (polyline
        (pts
          (xy 70.6628 -31.242)
          (xy 71.7042 -31.75)
        )
        (stroke (width 0.127) (type default) (color 0 0 0 0))
        (fill (type none))
      )
      (polyline
        (pts
          (xy 70.6628 -29.718)
          (xy 71.7042 -29.21)
        )
        (stroke (width 0.127) (type default) (color 0 0 0 0))
        (fill (type none))
      )
      (polyline
        (pts
          (xy 70.6628 -28.702)
          (xy 71.7042 -29.21)
        )
        (stroke (width 0.127) (type default) (color 0 0 0 0))
        (fill (type none))
      )
      (polyline
        (pts
          (xy 70.6628 -27.178)
          (xy 71.7042 -26.67)
        )
        (stroke (width 0.127) (type default) (color 0 0 0 0))
        (fill (type none))
      )
      (polyline
        (pts
          (xy 70.6628 -26.162)
          (xy 71.7042 -26.67)
        )
        (stroke (width 0.127) (type default) (color 0 0 0 0))
        (fill (type none))
      )
      (polyline
        (pts
          (xy 70.6628 -24.638)
          (xy 71.7042 -24.13)
        )
        (stroke (width 0.127) (type default) (color 0 0 0 0))
        (fill (type none))
      )
      (polyline
        (pts
          (xy 70.6628 -23.622)
          (xy 71.7042 -24.13)
        )
        (stroke (width 0.127) (type default) (color 0 0 0 0))
        (fill (type none))
      )
      (polyline
        (pts
          (xy 70.6628 -22.098)
          (xy 71.7042 -21.59)
        )
        (stroke (width 0.127) (type default) (color 0 0 0 0))
        (fill (type none))
      )
      (polyline
        (pts
          (xy 70.6628 -21.082)
          (xy 71.7042 -21.59)
        )
        (stroke (width 0.127) (type default) (color 0 0 0 0))
        (fill (type none))
      )
      (polyline
        (pts
          (xy 70.6628 -19.558)
          (xy 71.7042 -19.05)
        )
        (stroke (width 0.127) (type default) (color 0 0 0 0))
        (fill (type none))
      )
      (polyline
        (pts
          (xy 70.6628 -18.542)
          (xy 71.7042 -19.05)
        )
        (stroke (width 0.127) (type default) (color 0 0 0 0))
        (fill (type none))
      )
      (polyline
        (pts
          (xy 70.6628 -17.018)
          (xy 71.7042 -16.51)
        )
        (stroke (width 0.127) (type default) (color 0 0 0 0))
        (fill (type none))
      )
      (polyline
        (pts
          (xy 70.6628 -16.002)
          (xy 71.7042 -16.51)
        )
        (stroke (width 0.127) (type default) (color 0 0 0 0))
        (fill (type none))
      )
      (polyline
        (pts
          (xy 70.6628 -14.478)
          (xy 71.7042 -13.97)
        )
        (stroke (width 0.127) (type default) (color 0 0 0 0))
        (fill (type none))
      )
      (polyline
        (pts
          (xy 70.6628 -13.462)
          (xy 71.7042 -13.97)
        )
        (stroke (width 0.127) (type default) (color 0 0 0 0))
        (fill (type none))
      )
      (polyline
        (pts
          (xy 70.6628 -11.938)
          (xy 71.7042 -11.43)
        )
        (stroke (width 0.127) (type default) (color 0 0 0 0))
        (fill (type none))
      )
      (polyline
        (pts
          (xy 70.6628 -10.922)
          (xy 71.7042 -11.43)
        )
        (stroke (width 0.127) (type default) (color 0 0 0 0))
        (fill (type none))
      )
      (polyline
        (pts
          (xy 70.6628 -9.398)
          (xy 71.7042 -8.89)
        )
        (stroke (width 0.127) (type default) (color 0 0 0 0))
        (fill (type none))
      )
      (polyline
        (pts
          (xy 70.6628 -8.382)
          (xy 71.7042 -8.89)
        )
        (stroke (width 0.127) (type default) (color 0 0 0 0))
        (fill (type none))
      )
      (polyline
        (pts
          (xy 70.6628 -6.858)
          (xy 71.7042 -6.35)
        )
        (stroke (width 0.127) (type default) (color 0 0 0 0))
        (fill (type none))
      )
      (polyline
        (pts
          (xy 70.6628 -5.842)
          (xy 71.7042 -6.35)
        )
        (stroke (width 0.127) (type default) (color 0 0 0 0))
        (fill (type none))
      )
      (polyline
        (pts
          (xy 70.6628 -4.318)
          (xy 71.7042 -3.81)
        )
        (stroke (width 0.127) (type default) (color 0 0 0 0))
        (fill (type none))
      )
      (polyline
        (pts
          (xy 70.6628 -3.302)
          (xy 71.7042 -3.81)
        )
        (stroke (width 0.127) (type default) (color 0 0 0 0))
        (fill (type none))
      )
      (pin bidirectional line (at 76.2 -54.61 180) (length 7.62)
        (name "PC2" (effects (font (size 1.4986 1.4986))))
        (number "10" (effects (font (size 1.4986 1.4986))))
      )
      (pin bidirectional line (at 76.2 -57.15 180) (length 7.62)
        (name "PC3" (effects (font (size 1.4986 1.4986))))
        (number "11" (effects (font (size 1.4986 1.4986))))
      )
      (pin bidirectional line (at 76.2 -3.81 180) (length 7.62)
        (name "PA0/WKUP1" (effects (font (size 1.4986 1.4986))))
        (number "14" (effects (font (size 1.4986 1.4986))))
      )
      (pin bidirectional line (at 76.2 -6.35 180) (length 7.62)
        (name "PA1" (effects (font (size 1.4986 1.4986))))
        (number "15" (effects (font (size 1.4986 1.4986))))
      )
      (pin bidirectional line (at 76.2 -8.89 180) (length 7.62)
        (name "PA2" (effects (font (size 1.4986 1.4986))))
        (number "16" (effects (font (size 1.4986 1.4986))))
      )
      (pin bidirectional line (at 76.2 -11.43 180) (length 7.62)
        (name "PA3" (effects (font (size 1.4986 1.4986))))
        (number "17" (effects (font (size 1.4986 1.4986))))
      )
      (pin bidirectional line (at 76.2 -82.55 180) (length 7.62)
        (name "PC13/WKUP2" (effects (font (size 1.4986 1.4986))))
        (number "2" (effects (font (size 1.4986 1.4986))))
      )
      (pin bidirectional line (at 76.2 -13.97 180) (length 7.62)
        (name "PA4/SPI1_NSS" (effects (font (size 1.4986 1.4986))))
        (number "20" (effects (font (size 1.4986 1.4986))))
      )
      (pin bidirectional line (at 76.2 -16.51 180) (length 7.62)
        (name "PA5/SPI1_SCK" (effects (font (size 1.4986 1.4986))))
        (number "21" (effects (font (size 1.4986 1.4986))))
      )
      (pin bidirectional line (at 76.2 -19.05 180) (length 7.62)
        (name "PA6/SPI1_MISO" (effects (font (size 1.4986 1.4986))))
        (number "22" (effects (font (size 1.4986 1.4986))))
      )
      (pin bidirectional line (at 76.2 -21.59 180) (length 7.62)
        (name "PA7/SPI1_MOSI" (effects (font (size 1.4986 1.4986))))
        (number "23" (effects (font (size 1.4986 1.4986))))
      )
      (pin bidirectional line (at 76.2 -59.69 180) (length 7.62)
        (name "PC4/EINK_DC" (effects (font (size 1.4986 1.4986))))
        (number "24" (effects (font (size 1.4986 1.4986))))
      )
      (pin bidirectional line (at 76.2 -62.23 180) (length 7.62)
        (name "PC5/EINK_RST" (effects (font (size 1.4986 1.4986))))
        (number "25" (effects (font (size 1.4986 1.4986))))
      )
      (pin bidirectional line (at 0 -10.16 0) (length 7.62)
        (name "PB0/EINK_BUSY" (effects (font (size 1.4986 1.4986))))
        (number "26" (effects (font (size 1.4986 1.4986))))
      )
      (pin bidirectional line (at 0 -12.7 0) (length 7.62)
        (name "PB1" (effects (font (size 1.4986 1.4986))))
        (number "27" (effects (font (size 1.4986 1.4986))))
      )
      (pin bidirectional line (at 0 -15.24 0) (length 7.62)
        (name "PB2" (effects (font (size 1.4986 1.4986))))
        (number "28" (effects (font (size 1.4986 1.4986))))
      )
      (pin bidirectional line (at 0 -17.78 0) (length 7.62)
        (name "PB10" (effects (font (size 1.4986 1.4986))))
        (number "29" (effects (font (size 1.4986 1.4986))))
      )
      (pin bidirectional line (at 0 -63.5 0) (length 7.62)
        (name "PC14-OSC32_IN" (effects (font (size 1.4986 1.4986))))
        (number "3" (effects (font (size 1.4986 1.4986))))
      )
      (pin bidirectional line (at 0 -20.32 0) (length 7.62)
        (name "PB11" (effects (font (size 1.4986 1.4986))))
        (number "30" (effects (font (size 1.4986 1.4986))))
      )
      (pin bidirectional line (at 0 -22.86 0) (length 7.62)
        (name "PB12/SPI2_NSS" (effects (font (size 1.4986 1.4986))))
        (number "33" (effects (font (size 1.4986 1.4986))))
      )
      (pin bidirectional line (at 0 -25.4 0) (length 7.62)
        (name "PB13/SPI2_SCK" (effects (font (size 1.4986 1.4986))))
        (number "34" (effects (font (size 1.4986 1.4986))))
      )
      (pin bidirectional line (at 0 -27.94 0) (length 7.62)
        (name "PB14/SPI2_MISO" (effects (font (size 1.4986 1.4986))))
        (number "35" (effects (font (size 1.4986 1.4986))))
      )
      (pin bidirectional line (at 0 -30.48 0) (length 7.62)
        (name "PB15/SPI2_MOSI" (effects (font (size 1.4986 1.4986))))
        (number "36" (effects (font (size 1.4986 1.4986))))
      )
      (pin bidirectional line (at 76.2 -64.77 180) (length 7.62)
        (name "PC6/CARD_CD" (effects (font (size 1.4986 1.4986))))
        (number "37" (effects (font (size 1.4986 1.4986))))
      )
      (pin bidirectional line (at 76.2 -67.31 180) (length 7.62)
        (name "PC7" (effects (font (size 1.4986 1.4986))))
        (number "38" (effects (font (size 1.4986 1.4986))))
      )
      (pin bidirectional line (at 76.2 -69.85 180) (length 7.62)
        (name "PC8" (effects (font (size 1.4986 1.4986))))
        (number "39" (effects (font (size 1.4986 1.4986))))
      )
      (pin bidirectional line (at 0 -66.04 0) (length 7.62)
        (name "PC15-OSC32_OUT" (effects (font (size 1.4986 1.4986))))
        (number "4" (effects (font (size 1.4986 1.4986))))
      )
      (pin bidirectional line (at 76.2 -72.39 180) (length 7.62)
        (name "PC9" (effects (font (size 1.4986 1.4986))))
        (number "40" (effects (font (size 1.4986 1.4986))))
      )
      (pin bidirectional line (at 76.2 -24.13 180) (length 7.62)
        (name "PA8" (effects (font (size 1.4986 1.4986))))
        (number "41" (effects (font (size 1.4986 1.4986))))
      )
      (pin bidirectional line (at 76.2 -26.67 180) (length 7.62)
        (name "PA9/I2C1_SCL" (effects (font (size 1.4986 1.4986))))
        (number "42" (effects (font (size 1.4986 1.4986))))
      )
      (pin bidirectional line (at 76.2 -29.21 180) (length 7.62)
        (name "PA10/I2C1_SDA" (effects (font (size 1.4986 1.4986))))
        (number "43" (effects (font (size 1.4986 1.4986))))
      )
      (pin bidirectional line (at 76.2 -31.75 180) (length 7.62)
        (name "PA11" (effects (font (size 1.4986 1.4986))))
        (number "44" (effects (font (size 1.4986 1.4986))))
      )
      (pin bidirectional line (at 76.2 -34.29 180) (length 7.62)
        (name "PA12" (effects (font (size 1.4986 1.4986))))
        (number "45" (effects (font (size 1.4986 1.4986))))
      )
      (pin bidirectional line (at 76.2 -36.83 180) (length 7.62)
        (name "PA13/SWDIO" (effects (font (size 1.4986 1.4986))))
        (number "46" (effects (font (size 1.4986 1.4986))))
      )
      (pin bidirectional line (at 76.2 -39.37 180) (length 7.62)
        (name "PA14/SWCLK" (effects (font (size 1.4986 1.4986))))
        (number "49" (effects (font (size 1.4986 1.4986))))
      )
      (pin bidirectional line (at 0 -55.88 0) (length 7.62)
        (name "PH0-OSC_IN" (effects (font (size 1.4986 1.4986))))
        (number "5" (effects (font (size 1.4986 1.4986))))
      )
      (pin bidirectional line (at 76.2 -41.91 180) (length 7.62)
        (name "PA15" (effects (font (size 1.4986 1.4986))))
        (number "50" (effects (font (size 1.4986 1.4986))))
      )
      (pin bidirectional line (at 76.2 -74.93 180) (length 7.62)
        (name "PC10" (effects (font (size 1.4986 1.4986))))
        (number "51" (effects (font (size 1.4986 1.4986))))
      )
      (pin bidirectional line (at 76.2 -77.47 180) (length 7.62)
        (name "PC11" (effects (font (size 1.4986 1.4986))))
        (number "52" (effects (font (size 1.4986 1.4986))))
      )
      (pin bidirectional line (at 76.2 -80.01 180) (length 7.62)
        (name "PC12" (effects (font (size 1.4986 1.4986))))
        (number "53" (effects (font (size 1.4986 1.4986))))
      )
      (pin bidirectional line (at 0 -50.8 0) (length 7.62)
        (name "PD2" (effects (font (size 1.4986 1.4986))))
        (number "54" (effects (font (size 1.4986 1.4986))))
      )
      (pin bidirectional line (at 0 -33.02 0) (length 7.62)
        (name "PB3" (effects (font (size 1.4986 1.4986))))
        (number "55" (effects (font (size 1.4986 1.4986))))
      )
      (pin bidirectional line (at 0 -35.56 0) (length 7.62)
        (name "PB4/LED1" (effects (font (size 1.4986 1.4986))))
        (number "56" (effects (font (size 1.4986 1.4986))))
      )
      (pin bidirectional line (at 0 -38.1 0) (length 7.62)
        (name "PB5/LED2" (effects (font (size 1.4986 1.4986))))
        (number "57" (effects (font (size 1.4986 1.4986))))
      )
      (pin bidirectional line (at 0 -40.64 0) (length 7.62)
        (name "PB6" (effects (font (size 1.4986 1.4986))))
        (number "58" (effects (font (size 1.4986 1.4986))))
      )
      (pin bidirectional line (at 0 -43.18 0) (length 7.62)
        (name "PB7" (effects (font (size 1.4986 1.4986))))
        (number "59" (effects (font (size 1.4986 1.4986))))
      )
      (pin bidirectional line (at 0 -58.42 0) (length 7.62)
        (name "PH1-OSC_OUT" (effects (font (size 1.4986 1.4986))))
        (number "6" (effects (font (size 1.4986 1.4986))))
      )
      (pin input line (at 0 0 0) (length 7.62)
        (name "BOOT0" (effects (font (size 1.4986 1.4986))))
        (number "60" (effects (font (size 1.4986 1.4986))))
      )
      (pin bidirectional line (at 0 -45.72 0) (length 7.62)
        (name "PB8" (effects (font (size 1.4986 1.4986))))
        (number "61" (effects (font (size 1.4986 1.4986))))
      )
      (pin bidirectional line (at 0 -48.26 0) (length 7.62)
        (name "PB9" (effects (font (size 1.4986 1.4986))))
        (number "62" (effects (font (size 1.4986 1.4986))))
      )
      (pin bidirectional line (at 0 -5.08 0) (length 7.62)
        (name "NRST" (effects (font (size 1.4986 1.4986))))
        (number "7" (effects (font (size 1.4986 1.4986))))
      )
      (pin bidirectional line (at 76.2 -49.53 180) (length 7.62)
        (name "PC0/LPUART1_RX" (effects (font (size 1.4986 1.4986))))
        (number "8" (effects (font (size 1.4986 1.4986))))
      )
      (pin bidirectional line (at 76.2 -52.07 180) (length 7.62)
        (name "PC1/LPUART1_TX" (effects (font (size 1.4986 1.4986))))
        (number "9" (effects (font (size 1.4986 1.4986))))
      )
    )
    (symbol "STM32L073RBT6_2_1"
      (rectangle (start 7.62 5.08) (end 33.02 -20.32)
        (stroke (width 0) (type default) (color 0 0 0 0))
        (fill (type none))
      )
      (pin power_in line (at 0 -6.35 0) (length 7.62)
        (name "VLCD" (effects (font (size 1.4986 1.4986))))
        (number "1" (effects (font (size 1.4986 1.4986))))
      )
      (pin power_in line (at 40.64 -8.89 180) (length 7.62)
        (name "VSSA" (effects (font (size 1.4986 1.4986))))
        (number "12" (effects (font (size 1.4986 1.4986))))
      )
      (pin power_in line (at 40.64 -6.35 180) (length 7.62)
        (name "VDDA" (effects (font (size 1.4986 1.4986))))
        (number "13" (effects (font (size 1.4986 1.4986))))
      )
      (pin power_in line (at 16.51 -27.94 90) (length 7.62)
        (name "VSS" (effects (font (size 1.4986 1.4986))))
        (number "18" (effects (font (size 1.4986 1.4986))))
      )
      (pin power_in line (at 17.78 12.7 270) (length 7.62)
        (name "VDD" (effects (font (size 1.4986 1.4986))))
        (number "19" (effects (font (size 1.4986 1.4986))))
      )
      (pin power_in line (at 19.05 -27.94 90) (length 7.62)
        (name "VSS" (effects (font (size 1.4986 1.4986))))
        (number "31" (effects (font (size 1.4986 1.4986))))
      )
      (pin power_in line (at 20.32 12.7 270) (length 7.62)
        (name "VDD" (effects (font (size 1.4986 1.4986))))
        (number "32" (effects (font (size 1.4986 1.4986))))
      )
      (pin power_in line (at 21.59 -27.94 90) (length 7.62)
        (name "VSS" (effects (font (size 1.4986 1.4986))))
        (number "47" (effects (font (size 1.4986 1.4986))))
      )
      (pin power_in line (at 0 -8.89 0) (length 7.62)
        (name "VDD_USB" (effects (font (size 1.4986 1.4986))))
        (number "48" (effects (font (size 1.4986 1.4986))))
      )
      (pin power_in line (at 24.13 -27.94 90) (length 7.62)
        (name "VSS" (effects (font (size 1.4986 1.4986))))
        (number "63" (effects (font (size 1.4986 1.4986))))
      )
      (pin power_in line (at 22.86 12.7 270) (length 7.62)
        (name "VDD" (effects (font (size 1.4986 1.4986))))
        (number "64" (effects (font (size 1.4986 1.4986))))
      )
    )
  )
)
