(footprint "L_4.5x4x3.2mm" (version 20211014) (generator pcbnew)
  (layer "F.Cu")
  (tedit 0)
  (attr smd)
  (fp_text reference "REF**" (at 0 3.4 unlocked) (layer "F.SilkS")
    (effects (font (size 1 1) (thickness 0.15)))
    (tstamp 787fd6c6-c2af-4934-a8ae-beb5cd42edb3)
  )
  (fp_text value "L_4.5x4x3.2mm" (at 0 4.8 unlocked) (layer "F.Fab")
    (effects (font (size 1 1) (thickness 0.15)))
    (tstamp f9b8fa53-0fd8-4d90-8050-15d4bc74aa8b)
  )
  (fp_text user "${REFERENCE}" (at 0 6.2 unlocked) (layer "F.Fab")
    (effects (font (size 1 1) (thickness 0.15)))
    (tstamp 633d5f64-e0de-4d8a-a1b5-2c148dc9cda8)
  )
  (fp_rect (start -2.8 -2.5) (end 2.8 2.5) (layer "F.SilkS") (width 0.12) (fill none) (tstamp 8252d023-e12c-4b21-bbf2-65689be9495b))
  (pad "1" smd roundrect (at 1.75 0) (size 1.75 4.5) (layers "F.Cu" "F.Paste" "F.Mask") (roundrect_rratio 0.25) (tstamp b8575440-45fc-4a24-8dd5-19b33ec8ae6b))
  (pad "2" smd roundrect (at -1.75 0) (size 1.75 4.5) (layers "F.Cu" "F.Paste" "F.Mask") (roundrect_rratio 0.25) (tstamp f95d277f-f4b0-4b03-8c7f-e2c3cef700f1))
)
