(kicad_sch (version 20211123) (generator eeschema)

  (uuid 10aca476-d8bd-4ac8-b8d1-c2d44aea1e32)

  (paper "A4")

  (lib_symbols
    (symbol "Connector:Micro_SD_Card" (pin_names (offset 1.016)) (in_bom yes) (on_board yes)
      (property "Reference" "J" (id 0) (at -16.51 15.24 0)
        (effects (font (size 1.27 1.27)))
      )
      (property "Value" "Micro_SD_Card" (id 1) (at 16.51 15.24 0)
        (effects (font (size 1.27 1.27)) (justify right))
      )
      (property "Footprint" "" (id 2) (at 29.21 7.62 0)
        (effects (font (size 1.27 1.27)) hide)
      )
      (property "Datasheet" "http://katalog.we-online.de/em/datasheet/693072010801.pdf" (id 3) (at 0 0 0)
        (effects (font (size 1.27 1.27)) hide)
      )
      (property "ki_keywords" "connector SD microsd" (id 4) (at 0 0 0)
        (effects (font (size 1.27 1.27)) hide)
      )
      (property "ki_description" "Micro SD Card Socket" (id 5) (at 0 0 0)
        (effects (font (size 1.27 1.27)) hide)
      )
      (property "ki_fp_filters" "microSD*" (id 6) (at 0 0 0)
        (effects (font (size 1.27 1.27)) hide)
      )
      (symbol "Micro_SD_Card_0_1"
        (rectangle (start -7.62 -9.525) (end -5.08 -10.795)
          (stroke (width 0) (type default) (color 0 0 0 0))
          (fill (type outline))
        )
        (rectangle (start -7.62 -6.985) (end -5.08 -8.255)
          (stroke (width 0) (type default) (color 0 0 0 0))
          (fill (type outline))
        )
        (rectangle (start -7.62 -4.445) (end -5.08 -5.715)
          (stroke (width 0) (type default) (color 0 0 0 0))
          (fill (type outline))
        )
        (rectangle (start -7.62 -1.905) (end -5.08 -3.175)
          (stroke (width 0) (type default) (color 0 0 0 0))
          (fill (type outline))
        )
        (rectangle (start -7.62 0.635) (end -5.08 -0.635)
          (stroke (width 0) (type default) (color 0 0 0 0))
          (fill (type outline))
        )
        (rectangle (start -7.62 3.175) (end -5.08 1.905)
          (stroke (width 0) (type default) (color 0 0 0 0))
          (fill (type outline))
        )
        (rectangle (start -7.62 5.715) (end -5.08 4.445)
          (stroke (width 0) (type default) (color 0 0 0 0))
          (fill (type outline))
        )
        (rectangle (start -7.62 8.255) (end -5.08 6.985)
          (stroke (width 0) (type default) (color 0 0 0 0))
          (fill (type outline))
        )
        (polyline
          (pts
            (xy 16.51 12.7)
            (xy 16.51 13.97)
            (xy -19.05 13.97)
            (xy -19.05 -16.51)
            (xy 16.51 -16.51)
            (xy 16.51 -11.43)
          )
          (stroke (width 0.254) (type default) (color 0 0 0 0))
          (fill (type none))
        )
        (polyline
          (pts
            (xy -8.89 -11.43)
            (xy -8.89 8.89)
            (xy -1.27 8.89)
            (xy 2.54 12.7)
            (xy 3.81 12.7)
            (xy 3.81 11.43)
            (xy 6.35 11.43)
            (xy 7.62 12.7)
            (xy 20.32 12.7)
            (xy 20.32 -11.43)
            (xy -8.89 -11.43)
          )
          (stroke (width 0.254) (type default) (color 0 0 0 0))
          (fill (type background))
        )
      )
      (symbol "Micro_SD_Card_1_1"
        (pin bidirectional line (at -22.86 7.62 0) (length 3.81)
          (name "DAT2" (effects (font (size 1.27 1.27))))
          (number "1" (effects (font (size 1.27 1.27))))
        )
        (pin bidirectional line (at -22.86 5.08 0) (length 3.81)
          (name "DAT3/CD" (effects (font (size 1.27 1.27))))
          (number "2" (effects (font (size 1.27 1.27))))
        )
        (pin input line (at -22.86 2.54 0) (length 3.81)
          (name "CMD" (effects (font (size 1.27 1.27))))
          (number "3" (effects (font (size 1.27 1.27))))
        )
        (pin power_in line (at -22.86 0 0) (length 3.81)
          (name "VDD" (effects (font (size 1.27 1.27))))
          (number "4" (effects (font (size 1.27 1.27))))
        )
        (pin input line (at -22.86 -2.54 0) (length 3.81)
          (name "CLK" (effects (font (size 1.27 1.27))))
          (number "5" (effects (font (size 1.27 1.27))))
        )
        (pin power_in line (at -22.86 -5.08 0) (length 3.81)
          (name "VSS" (effects (font (size 1.27 1.27))))
          (number "6" (effects (font (size 1.27 1.27))))
        )
        (pin bidirectional line (at -22.86 -7.62 0) (length 3.81)
          (name "DAT0" (effects (font (size 1.27 1.27))))
          (number "7" (effects (font (size 1.27 1.27))))
        )
        (pin bidirectional line (at -22.86 -10.16 0) (length 3.81)
          (name "DAT1" (effects (font (size 1.27 1.27))))
          (number "8" (effects (font (size 1.27 1.27))))
        )
        (pin passive line (at 20.32 -15.24 180) (length 3.81)
          (name "SHIELD" (effects (font (size 1.27 1.27))))
          (number "9" (effects (font (size 1.27 1.27))))
        )
      )
    )
    (symbol "power-custom:+3V3-SWITCHED" (power) (in_bom no) (on_board no)
      (property "Reference" "#PWR" (id 0) (at 0 -4.445 0)
        (effects (font (size 1.27 1.27)) hide)
      )
      (property "Value" "+3V3-SWITCHED" (id 1) (at 0 3.556 0)
        (effects (font (size 1.27 1.27)))
      )
      (property "Footprint" "" (id 2) (at 0.635 0.635 0)
        (effects (font (size 1.27 1.27)) hide)
      )
      (property "Datasheet" "" (id 3) (at 0.635 0.635 0)
        (effects (font (size 1.27 1.27)) hide)
      )
      (symbol "+3V3-SWITCHED_0_1"
        (polyline
          (pts
            (xy 0 0)
            (xy 0 2.54)
          )
          (stroke (width 0) (type default) (color 0 0 0 0))
          (fill (type none))
        )
        (polyline
          (pts
            (xy 0 2.54)
            (xy -0.762 1.27)
          )
          (stroke (width 0) (type default) (color 0 0 0 0))
          (fill (type none))
        )
        (polyline
          (pts
            (xy 0 2.54)
            (xy 0.762 1.27)
          )
          (stroke (width 0) (type default) (color 0 0 0 0))
          (fill (type none))
        )
      )
      (symbol "+3V3-SWITCHED_1_1"
        (pin power_in line (at 0 0 90) (length 0) hide
          (name "+3V3-SWITCHED" (effects (font (size 1.27 1.27))))
          (number "1" (effects (font (size 1.27 1.27))))
        )
      )
    )
    (symbol "power:GND" (power) (pin_names (offset 0)) (in_bom yes) (on_board yes)
      (property "Reference" "#PWR" (id 0) (at 0 -6.35 0)
        (effects (font (size 1.27 1.27)) hide)
      )
      (property "Value" "GND" (id 1) (at 0 -3.81 0)
        (effects (font (size 1.27 1.27)))
      )
      (property "Footprint" "" (id 2) (at 0 0 0)
        (effects (font (size 1.27 1.27)) hide)
      )
      (property "Datasheet" "" (id 3) (at 0 0 0)
        (effects (font (size 1.27 1.27)) hide)
      )
      (property "ki_keywords" "power-flag" (id 4) (at 0 0 0)
        (effects (font (size 1.27 1.27)) hide)
      )
      (property "ki_description" "Power symbol creates a global label with name \"GND\" , ground" (id 5) (at 0 0 0)
        (effects (font (size 1.27 1.27)) hide)
      )
      (symbol "GND_0_1"
        (polyline
          (pts
            (xy 0 0)
            (xy 0 -1.27)
            (xy 1.27 -1.27)
            (xy 0 -2.54)
            (xy -1.27 -1.27)
            (xy 0 -1.27)
          )
          (stroke (width 0) (type default) (color 0 0 0 0))
          (fill (type none))
        )
      )
      (symbol "GND_1_1"
        (pin power_in line (at 0 0 270) (length 0) hide
          (name "GND" (effects (font (size 1.27 1.27))))
          (number "1" (effects (font (size 1.27 1.27))))
        )
      )
    )
  )


  (no_connect (at 128.905 99.06) (uuid 5c705c9c-86eb-4803-b340-1e0b187568db))
  (no_connect (at 128.905 81.28) (uuid 9bd8e7f7-f762-4e07-84e9-c74125dcfb5c))

  (wire (pts (xy 110.49 93.98) (xy 128.905 93.98))
    (stroke (width 0) (type default) (color 0 0 0 0))
    (uuid 0c0a6414-6c9e-4d55-9a54-d3ffcadfe152)
  )
  (wire (pts (xy 123.19 96.52) (xy 128.905 96.52))
    (stroke (width 0) (type default) (color 0 0 0 0))
    (uuid 0e9b8a33-b22b-4894-9c31-cec06b0a7ccc)
  )
  (wire (pts (xy 128.905 91.44) (xy 123.825 91.44))
    (stroke (width 0) (type default) (color 0 0 0 0))
    (uuid 2782e95a-bc3f-4d27-adc5-0602fe7ac8a9)
  )
  (wire (pts (xy 128.905 86.36) (xy 123.825 86.36))
    (stroke (width 0) (type default) (color 0 0 0 0))
    (uuid 27f617db-e9a2-4928-bd0d-929fffbbc0a1)
  )
  (wire (pts (xy 172.085 104.14) (xy 176.53 104.14))
    (stroke (width 0) (type default) (color 0 0 0 0))
    (uuid 5d133743-3194-443b-a16f-ae7048874c8d)
  )
  (wire (pts (xy 128.905 83.82) (xy 123.825 83.82))
    (stroke (width 0) (type default) (color 0 0 0 0))
    (uuid 7e4d10b6-1860-49b7-be86-8991e3106d96)
  )
  (wire (pts (xy 110.49 88.9) (xy 128.905 88.9))
    (stroke (width 0) (type default) (color 0 0 0 0))
    (uuid da41f1bf-3a97-4106-ba00-f30350efb388)
  )

  (text "shield pin in schematic corresponds to unlabeled detection pin found on the connector "
    (at 139.7 109.855 0)
    (effects (font (size 1.27 1.27)) (justify left bottom))
    (uuid 29104854-40e1-4397-bed3-a3aacce374f1)
  )

  (hierarchical_label "MOSI" (shape input) (at 123.825 86.36 180)
    (effects (font (size 1.27 1.27)) (justify right))
    (uuid 098fffd6-434b-45a1-a9bc-018f20ea598f)
  )
  (hierarchical_label "CS" (shape input) (at 123.825 83.82 180)
    (effects (font (size 1.27 1.27)) (justify right))
    (uuid 72351396-b503-436c-a320-e9868d8bc9fd)
  )
  (hierarchical_label "CD" (shape output) (at 176.53 104.14 0)
    (effects (font (size 1.27 1.27)) (justify left))
    (uuid 7be52665-b9ae-4ce5-9c1d-2ed08bec380e)
  )
  (hierarchical_label "SCLK" (shape input) (at 123.825 91.44 180)
    (effects (font (size 1.27 1.27)) (justify right))
    (uuid ee6af41f-877f-4a48-960b-e233f827248f)
  )
  (hierarchical_label "MISO" (shape output) (at 123.19 96.52 180)
    (effects (font (size 1.27 1.27)) (justify right))
    (uuid f352d615-4822-4aaf-bfbd-182867b19167)
  )

  (symbol (lib_id "Connector:Micro_SD_Card") (at 151.765 88.9 0) (unit 1)
    (in_bom yes) (on_board yes)
    (uuid 307ca3f2-ba5f-4274-b700-f2b0fd20ecb9)
    (property "Reference" "J401" (id 0) (at 150.495 70.6882 0))
    (property "Value" "TF Card" (id 1) (at 150.495 72.9996 0))
    (property "Footprint" "footprints:Conn_uSDcard" (id 2) (at 180.975 81.28 0)
      (effects (font (size 1.27 1.27)) hide)
    )
    (property "Datasheet" "http://katalog.we-online.de/em/datasheet/693072010801.pdf" (id 3) (at 151.765 88.9 0)
      (effects (font (size 1.27 1.27)) hide)
    )
    (pin "1" (uuid d97f9f9f-fff8-410e-87ab-ef5c1f9ba5e2))
    (pin "2" (uuid 20a7f6e0-14da-480a-a407-87642edb9ade))
    (pin "3" (uuid e4307d52-2849-4894-abac-eb5475d29be7))
    (pin "4" (uuid 362ea2f2-5c76-4db2-97cf-9eecbbe856cc))
    (pin "5" (uuid 01795667-54e4-497d-900d-0be6bf9483da))
    (pin "6" (uuid 74b954c6-3789-478d-8003-43a7a447739e))
    (pin "7" (uuid 10ee12c5-948c-4cff-92b2-8dfc5932d23b))
    (pin "8" (uuid ec9e61d9-021c-4d08-934c-39103f07d6a1))
    (pin "9" (uuid f7dc025e-7638-48a8-8c88-ed05efbb9fbc))
  )

  (symbol (lib_id "power:GND") (at 110.49 93.98 0) (unit 1)
    (in_bom yes) (on_board yes)
    (uuid 84231861-f2e4-48a2-87bf-b76f3c0ae9d5)
    (property "Reference" "#PWR0402" (id 0) (at 110.49 100.33 0)
      (effects (font (size 1.27 1.27)) hide)
    )
    (property "Value" "GND" (id 1) (at 110.617 98.3742 0))
    (property "Footprint" "" (id 2) (at 110.49 93.98 0)
      (effects (font (size 1.27 1.27)) hide)
    )
    (property "Datasheet" "" (id 3) (at 110.49 93.98 0)
      (effects (font (size 1.27 1.27)) hide)
    )
    (pin "1" (uuid 1a6fdbfb-e158-4ece-99e2-3fd8c9ee3a79))
  )

  (symbol (lib_id "power-custom:+3V3-SWITCHED") (at 110.49 88.9 0) (unit 1)
    (in_bom no) (on_board no) (fields_autoplaced)
    (uuid fb592116-dc78-45b0-a2f3-57b8c985e2bb)
    (property "Reference" "#PWR0401" (id 0) (at 110.49 93.345 0)
      (effects (font (size 1.27 1.27)) hide)
    )
    (property "Value" "+3V3-SWITCHED" (id 1) (at 110.49 83.82 0))
    (property "Footprint" "" (id 2) (at 111.125 88.265 0)
      (effects (font (size 1.27 1.27)) hide)
    )
    (property "Datasheet" "" (id 3) (at 111.125 88.265 0)
      (effects (font (size 1.27 1.27)) hide)
    )
    (pin "1" (uuid a096e9a1-385a-4934-b1f8-cf0c95e37867))
  )
)
