(kicad_sch (version 20211123) (generator eeschema)

  (uuid 4f4703c8-444d-4932-9e98-5dc4f5f0a77f)

  (paper "A4")

  (lib_symbols
  )


  (wire (pts (xy 170.18 104.14) (xy 191.77 104.14))
    (stroke (width 0) (type default) (color 0 0 0 0))
    (uuid 0fafc683-c109-4fa0-bdd2-0b1b481c9c23)
  )
  (wire (pts (xy 104.14 101.6) (xy 138.43 101.6))
    (stroke (width 0) (type default) (color 0 0 0 0))
    (uuid 1f45422d-94e5-4865-a87b-4b76c2a4d54b)
  )
  (wire (pts (xy 170.18 101.6) (xy 191.77 101.6))
    (stroke (width 0) (type default) (color 0 0 0 0))
    (uuid 2accfe5b-0379-4491-8e37-eda4b63e81dd)
  )
  (wire (pts (xy 104.14 93.98) (xy 138.43 93.98))
    (stroke (width 0) (type default) (color 0 0 0 0))
    (uuid 30e47b6e-9b81-4fd0-a84a-bb3f3829efe4)
  )
  (wire (pts (xy 170.18 96.52) (xy 191.77 96.52))
    (stroke (width 0) (type default) (color 0 0 0 0))
    (uuid 417b7a45-3185-477a-90cc-839c8eed0436)
  )
  (wire (pts (xy 170.18 99.06) (xy 191.77 99.06))
    (stroke (width 0) (type default) (color 0 0 0 0))
    (uuid 43149ecf-f0d4-4438-aad1-c7913e9dda9b)
  )
  (wire (pts (xy 104.14 99.06) (xy 138.43 99.06))
    (stroke (width 0) (type default) (color 0 0 0 0))
    (uuid 5843e3d4-4423-4b84-9ee5-80c77a135f0d)
  )
  (wire (pts (xy 104.14 96.52) (xy 138.43 96.52))
    (stroke (width 0) (type default) (color 0 0 0 0))
    (uuid 6afb9ef1-0fe4-4e94-bc26-ece3b7d20516)
  )
  (wire (pts (xy 104.14 104.14) (xy 138.43 104.14))
    (stroke (width 0) (type default) (color 0 0 0 0))
    (uuid c79b8e86-3e8f-49d1-8e11-305125b39869)
  )
  (wire (pts (xy 170.18 93.98) (xy 191.77 93.98))
    (stroke (width 0) (type default) (color 0 0 0 0))
    (uuid d6bfb401-cf49-4615-8935-d7ae23ccae89)
  )
  (wire (pts (xy 104.14 106.68) (xy 138.43 106.68))
    (stroke (width 0) (type default) (color 0 0 0 0))
    (uuid ff3ff102-9599-4bd8-b7fb-26923d6eea7b)
  )

  (sheet (at 191.77 90.17) (size 13.97 20.32) (fields_autoplaced)
    (stroke (width 0.1524) (type solid) (color 0 0 0 0))
    (fill (color 0 0 0 0.0000))
    (uuid 00180017-9cf3-4912-97a8-64ce8b07cfa7)
    (property "Sheet name" "SPI Card" (id 0) (at 191.77 89.4584 0)
      (effects (font (size 1.27 1.27)) (justify left bottom))
    )
    (property "Sheet file" "card.kicad_sch" (id 1) (at 191.77 111.0746 0)
      (effects (font (size 1.27 1.27)) (justify left top))
    )
    (pin "CD" output (at 191.77 104.14 180)
      (effects (font (size 1.27 1.27)) (justify left))
      (uuid 4732af8a-1963-4398-8381-1af667345196)
    )
    (pin "CS" input (at 191.77 93.98 180)
      (effects (font (size 1.27 1.27)) (justify left))
      (uuid fe74e429-bf76-4225-a6ff-d7aa3ea8c9af)
    )
    (pin "SCLK" input (at 191.77 96.52 180)
      (effects (font (size 1.27 1.27)) (justify left))
      (uuid fab39e88-2ae7-452b-a6fa-838409258962)
    )
    (pin "MOSI" input (at 191.77 99.06 180)
      (effects (font (size 1.27 1.27)) (justify left))
      (uuid bda919ea-8071-4453-a387-be1cf9bc652f)
    )
    (pin "MISO" output (at 191.77 101.6 180)
      (effects (font (size 1.27 1.27)) (justify left))
      (uuid 5bf9e83a-7bc7-4539-bf31-77ec8602a445)
    )
  )

  (sheet (at 91.44 90.17) (size 12.7 20.32) (fields_autoplaced)
    (stroke (width 0.1524) (type solid) (color 0 0 0 0))
    (fill (color 0 0 0 0.0000))
    (uuid 1669bc16-1636-4fde-a4cb-95c6656af335)
    (property "Sheet name" "E-Paper Display" (id 0) (at 91.44 89.4584 0)
      (effects (font (size 1.27 1.27)) (justify left bottom))
    )
    (property "Sheet file" "epd.kicad_sch" (id 1) (at 91.44 111.0746 0)
      (effects (font (size 1.27 1.27)) (justify left top))
    )
    (pin "RST" input (at 104.14 104.14 0)
      (effects (font (size 1.27 1.27)) (justify right))
      (uuid c28fa88c-5cea-4392-82ce-a8c5685ef71f)
    )
    (pin "BUSY" output (at 104.14 106.68 0)
      (effects (font (size 1.27 1.27)) (justify right))
      (uuid 106f91b4-9aae-4e1d-a231-717688793c9d)
    )
    (pin "CS" input (at 104.14 93.98 0)
      (effects (font (size 1.27 1.27)) (justify right))
      (uuid ed5e05d9-260e-4c9e-9583-a7df71e735f9)
    )
    (pin "SCLK" input (at 104.14 96.52 0)
      (effects (font (size 1.27 1.27)) (justify right))
      (uuid bb4133b2-494b-4779-b3a6-3510f2675cb6)
    )
    (pin "MOSI" input (at 104.14 99.06 0)
      (effects (font (size 1.27 1.27)) (justify right))
      (uuid 62af40ef-1405-48b4-a9f4-e768880b0d71)
    )
    (pin "DC" input (at 104.14 101.6 0)
      (effects (font (size 1.27 1.27)) (justify right))
      (uuid 0cba1e79-7a97-47cd-a304-8daa4af76562)
    )
  )

  (sheet (at 138.43 90.17) (size 31.75 20.32) (fields_autoplaced)
    (stroke (width 0.1524) (type solid) (color 0 0 0 0))
    (fill (color 0 0 0 0.0000))
    (uuid 88610971-cbcc-4110-90e2-bb50e0d3112a)
    (property "Sheet name" "MCU & Power" (id 0) (at 138.43 89.4584 0)
      (effects (font (size 1.27 1.27)) (justify left bottom))
    )
    (property "Sheet file" "mcu_power.kicad_sch" (id 1) (at 138.43 111.0746 0)
      (effects (font (size 1.27 1.27)) (justify left top))
    )
    (pin "EINK_CS" output (at 138.43 93.98 180)
      (effects (font (size 1.27 1.27)) (justify left))
      (uuid 063f75b7-8560-4f8e-b2ec-7b089ee057f1)
    )
    (pin "EINK_MOSI" output (at 138.43 99.06 180)
      (effects (font (size 1.27 1.27)) (justify left))
      (uuid 280cda17-c95c-404a-b200-d7545247ba90)
    )
    (pin "EINK_SCLK" output (at 138.43 96.52 180)
      (effects (font (size 1.27 1.27)) (justify left))
      (uuid 2e4e49f8-7bad-4ad6-8ffe-fced3598d641)
    )
    (pin "EINK_DC" output (at 138.43 101.6 180)
      (effects (font (size 1.27 1.27)) (justify left))
      (uuid ee2b97bf-9f86-485a-ae9d-191e2b6d3dd4)
    )
    (pin "EINK_RST" output (at 138.43 104.14 180)
      (effects (font (size 1.27 1.27)) (justify left))
      (uuid b6a55738-9e5c-487f-aa89-d98d4ad4ba9c)
    )
    (pin "CARD_CD" input (at 170.18 104.14 0)
      (effects (font (size 1.27 1.27)) (justify right))
      (uuid cac01ff5-a988-413c-bc93-e8e58cc126df)
    )
    (pin "EINK_BUSY" input (at 138.43 106.68 180)
      (effects (font (size 1.27 1.27)) (justify left))
      (uuid 86ca02cb-5645-489c-97ae-5c67d3c287d6)
    )
    (pin "CARD_MISO" input (at 170.18 101.6 0)
      (effects (font (size 1.27 1.27)) (justify right))
      (uuid a9ab623c-bc91-4cfd-9357-bc71cc66025d)
    )
    (pin "CARD_SCLK" output (at 170.18 96.52 0)
      (effects (font (size 1.27 1.27)) (justify right))
      (uuid 1dd0d2bd-4eb4-4ecc-9842-862d8e85230d)
    )
    (pin "CARD_MOSI" output (at 170.18 99.06 0)
      (effects (font (size 1.27 1.27)) (justify right))
      (uuid 53138ad9-e3bb-4796-aac1-7e5b58b333c2)
    )
    (pin "CARD_CS" output (at 170.18 93.98 0)
      (effects (font (size 1.27 1.27)) (justify right))
      (uuid ad3eb42e-851f-4123-a924-112055f4bf84)
    )
  )

  (sheet_instances
    (path "/" (page "1"))
    (path "/88610971-cbcc-4110-90e2-bb50e0d3112a" (page "2"))
    (path "/1669bc16-1636-4fde-a4cb-95c6656af335" (page "3"))
    (path "/00180017-9cf3-4912-97a8-64ce8b07cfa7" (page "4"))
  )

  (symbol_instances
    (path "/88610971-cbcc-4110-90e2-bb50e0d3112a/8d073c9a-d9ec-45b3-ae6b-2eedbe1b41d2"
      (reference "#PWR0201") (unit 1) (value "+3V3") (footprint "")
    )
    (path "/88610971-cbcc-4110-90e2-bb50e0d3112a/c56c7a78-83f5-4b33-b859-d1288b2eaecf"
      (reference "#PWR0202") (unit 1) (value "GND") (footprint "")
    )
    (path "/88610971-cbcc-4110-90e2-bb50e0d3112a/0c9c4758-17bc-4ede-ab93-12168db19324"
      (reference "#PWR0203") (unit 1) (value "GND") (footprint "")
    )
    (path "/88610971-cbcc-4110-90e2-bb50e0d3112a/ae573a56-9c0f-489f-8484-8c7516fd9671"
      (reference "#PWR0204") (unit 1) (value "+3V3") (footprint "")
    )
    (path "/88610971-cbcc-4110-90e2-bb50e0d3112a/ca3d6438-ebb3-412e-8474-a5cde42af2d5"
      (reference "#PWR0205") (unit 1) (value "GND") (footprint "")
    )
    (path "/88610971-cbcc-4110-90e2-bb50e0d3112a/80ff1ed9-cc7b-4c5f-9697-47f2c4503446"
      (reference "#PWR0206") (unit 1) (value "GND") (footprint "")
    )
    (path "/88610971-cbcc-4110-90e2-bb50e0d3112a/fcf50605-490c-4b4d-9e1d-433dc2711bc8"
      (reference "#PWR0207") (unit 1) (value "+3V3") (footprint "")
    )
    (path "/88610971-cbcc-4110-90e2-bb50e0d3112a/fe76c788-7294-4c15-b8bf-3072ec42b8e0"
      (reference "#PWR0208") (unit 1) (value "GND") (footprint "")
    )
    (path "/88610971-cbcc-4110-90e2-bb50e0d3112a/9766877a-66ef-4e4c-9d2a-2f868e02eaca"
      (reference "#PWR0209") (unit 1) (value "+3V3") (footprint "")
    )
    (path "/88610971-cbcc-4110-90e2-bb50e0d3112a/9c6cece3-5c2b-4879-a93d-8de158871c83"
      (reference "#PWR0210") (unit 1) (value "GND") (footprint "")
    )
    (path "/88610971-cbcc-4110-90e2-bb50e0d3112a/45452a69-857a-4075-a756-a426859218a6"
      (reference "#PWR0211") (unit 1) (value "+3V3") (footprint "")
    )
    (path "/88610971-cbcc-4110-90e2-bb50e0d3112a/1d80a975-4e7c-4af4-b70d-7cdd9095fd74"
      (reference "#PWR0212") (unit 1) (value "GND") (footprint "")
    )
    (path "/88610971-cbcc-4110-90e2-bb50e0d3112a/67585cae-035e-4865-84de-e8439725f6a7"
      (reference "#PWR0213") (unit 1) (value "+3V3") (footprint "")
    )
    (path "/88610971-cbcc-4110-90e2-bb50e0d3112a/afccd866-6e30-43af-add7-b835e35d759e"
      (reference "#PWR0214") (unit 1) (value "GND") (footprint "")
    )
    (path "/88610971-cbcc-4110-90e2-bb50e0d3112a/6124234c-775c-4b09-ba5a-91b69373c91e"
      (reference "#PWR0215") (unit 1) (value "+3V3") (footprint "")
    )
    (path "/88610971-cbcc-4110-90e2-bb50e0d3112a/e0bde044-7dbf-4a2c-8d31-00073bea80d6"
      (reference "#PWR0216") (unit 1) (value "GND") (footprint "")
    )
    (path "/88610971-cbcc-4110-90e2-bb50e0d3112a/d920e27c-3065-41e2-a9a2-c98161d045cc"
      (reference "#PWR0217") (unit 1) (value "+3V3") (footprint "")
    )
    (path "/88610971-cbcc-4110-90e2-bb50e0d3112a/410c72bf-1baf-4681-a516-75d9405c7412"
      (reference "#PWR0218") (unit 1) (value "GND") (footprint "")
    )
    (path "/88610971-cbcc-4110-90e2-bb50e0d3112a/08ea2816-095c-4652-a02e-4244a6959c99"
      (reference "#PWR0219") (unit 1) (value "+3V3") (footprint "")
    )
    (path "/88610971-cbcc-4110-90e2-bb50e0d3112a/22540793-ae0a-4000-9045-687922670e83"
      (reference "#PWR0220") (unit 1) (value "GND") (footprint "")
    )
    (path "/88610971-cbcc-4110-90e2-bb50e0d3112a/8cced811-68b7-4874-92aa-587e43a714d9"
      (reference "#PWR0221") (unit 1) (value "+3V3") (footprint "")
    )
    (path "/88610971-cbcc-4110-90e2-bb50e0d3112a/2016d7f5-f176-4571-ab37-df0f0153d571"
      (reference "#PWR0222") (unit 1) (value "+3V3") (footprint "")
    )
    (path "/88610971-cbcc-4110-90e2-bb50e0d3112a/007814f0-4e5c-4468-81af-646d1fb3f5ed"
      (reference "#PWR0223") (unit 1) (value "GND") (footprint "")
    )
    (path "/88610971-cbcc-4110-90e2-bb50e0d3112a/d18ab3a9-cca9-44b9-9488-295348735906"
      (reference "#PWR0224") (unit 1) (value "+BATT") (footprint "")
    )
    (path "/88610971-cbcc-4110-90e2-bb50e0d3112a/9e22e370-dea5-4a52-9a1b-b2a0d6d9d5eb"
      (reference "#PWR0225") (unit 1) (value "GND") (footprint "")
    )
    (path "/88610971-cbcc-4110-90e2-bb50e0d3112a/8ae5f174-7ff2-4ff9-88dc-ef8022e6ac08"
      (reference "#PWR0226") (unit 1) (value "~") (footprint "")
    )
    (path "/88610971-cbcc-4110-90e2-bb50e0d3112a/109aef28-c14a-473f-948b-e4b9f07a94db"
      (reference "#PWR0227") (unit 1) (value "GND") (footprint "")
    )
    (path "/88610971-cbcc-4110-90e2-bb50e0d3112a/d629f590-40c3-47ae-a493-96d30f53a633"
      (reference "#PWR0228") (unit 1) (value "+3V3") (footprint "")
    )
    (path "/88610971-cbcc-4110-90e2-bb50e0d3112a/d0bad257-1b27-4fc4-8dc1-0d3f1f6536e7"
      (reference "#PWR0229") (unit 1) (value "GND") (footprint "")
    )
    (path "/88610971-cbcc-4110-90e2-bb50e0d3112a/01191fda-b8e0-4770-9fa8-bfa422e95b67"
      (reference "#PWR0230") (unit 1) (value "GND") (footprint "")
    )
    (path "/88610971-cbcc-4110-90e2-bb50e0d3112a/69429be0-ab81-441c-a623-15e32b197339"
      (reference "#PWR0231") (unit 1) (value "~") (footprint "")
    )
    (path "/88610971-cbcc-4110-90e2-bb50e0d3112a/ff0bea6b-4854-46c9-8fa7-bafb1e5003f4"
      (reference "#PWR0232") (unit 1) (value "GND") (footprint "")
    )
    (path "/88610971-cbcc-4110-90e2-bb50e0d3112a/cdbace50-e825-4229-b6a8-e3e2f4dddfcb"
      (reference "#PWR0233") (unit 1) (value "+5V") (footprint "")
    )
    (path "/88610971-cbcc-4110-90e2-bb50e0d3112a/6c8bb0a8-2deb-43a3-b648-4a1f19189dee"
      (reference "#PWR0234") (unit 1) (value "+3V3") (footprint "")
    )
    (path "/88610971-cbcc-4110-90e2-bb50e0d3112a/fd1589b7-7eab-4c5f-a291-7f6c237de586"
      (reference "#PWR0235") (unit 1) (value "GND") (footprint "")
    )
    (path "/88610971-cbcc-4110-90e2-bb50e0d3112a/21df88f8-ca83-45ae-bfae-a8f023cc0628"
      (reference "#PWR0236") (unit 1) (value "+3V3-SWITCHED") (footprint "")
    )
    (path "/88610971-cbcc-4110-90e2-bb50e0d3112a/850ae12b-6922-479d-8062-ae729bfbcce4"
      (reference "#PWR0237") (unit 1) (value "GND") (footprint "")
    )
    (path "/88610971-cbcc-4110-90e2-bb50e0d3112a/1995300b-24c2-42bb-83b6-ecb083c58e01"
      (reference "#PWR0238") (unit 1) (value "GND") (footprint "")
    )
    (path "/88610971-cbcc-4110-90e2-bb50e0d3112a/3307f0ac-720c-4525-b464-4db3ba063ad1"
      (reference "#PWR0239") (unit 1) (value "+3V3") (footprint "")
    )
    (path "/88610971-cbcc-4110-90e2-bb50e0d3112a/88dc7b0e-4342-4099-872d-aadf6aa76413"
      (reference "#PWR0240") (unit 1) (value "GND") (footprint "")
    )
    (path "/88610971-cbcc-4110-90e2-bb50e0d3112a/2bbfb556-f994-4294-af57-707a9ee54985"
      (reference "#PWR0241") (unit 1) (value "+5V") (footprint "")
    )
    (path "/88610971-cbcc-4110-90e2-bb50e0d3112a/52b6cde6-d435-4423-80ea-bfb4e30a36fc"
      (reference "#PWR0242") (unit 1) (value "GND") (footprint "")
    )
    (path "/88610971-cbcc-4110-90e2-bb50e0d3112a/e44f9b8d-1c67-4a8e-a0a4-b913edbf1ba9"
      (reference "#PWR0243") (unit 1) (value "+3V3") (footprint "")
    )
    (path "/88610971-cbcc-4110-90e2-bb50e0d3112a/dd28bcb8-5695-46d2-bee3-ebe22b87a9a3"
      (reference "#PWR0244") (unit 1) (value "GND") (footprint "")
    )
    (path "/88610971-cbcc-4110-90e2-bb50e0d3112a/e474d4b9-5f72-4830-82f8-fe740fa493b5"
      (reference "#PWR0245") (unit 1) (value "+BATT") (footprint "")
    )
    (path "/88610971-cbcc-4110-90e2-bb50e0d3112a/4615a864-fab4-4c97-b059-c4378238ced0"
      (reference "#PWR0246") (unit 1) (value "GND") (footprint "")
    )
    (path "/88610971-cbcc-4110-90e2-bb50e0d3112a/917a3630-54e0-4a9e-a39f-74b18813e0e4"
      (reference "#PWR0247") (unit 1) (value "GND") (footprint "")
    )
    (path "/88610971-cbcc-4110-90e2-bb50e0d3112a/bdb6b651-96ec-4489-a69b-b7391ac1e1bd"
      (reference "#PWR0248") (unit 1) (value "+5V") (footprint "")
    )
    (path "/88610971-cbcc-4110-90e2-bb50e0d3112a/44bfcb94-6042-4e62-8a40-3556a3ef3d43"
      (reference "#PWR0249") (unit 1) (value "GND") (footprint "")
    )
    (path "/88610971-cbcc-4110-90e2-bb50e0d3112a/c126e5cf-c630-4935-b1bc-20eb2e6b833a"
      (reference "#PWR0250") (unit 1) (value "GND") (footprint "")
    )
    (path "/88610971-cbcc-4110-90e2-bb50e0d3112a/0c8bd6ab-59f5-496a-8118-a0586d5d3cd4"
      (reference "#PWR0251") (unit 1) (value "+5V") (footprint "")
    )
    (path "/88610971-cbcc-4110-90e2-bb50e0d3112a/ac4199da-967a-4658-859e-baa2de547a20"
      (reference "#PWR0252") (unit 1) (value "GND") (footprint "")
    )
    (path "/88610971-cbcc-4110-90e2-bb50e0d3112a/b5281a73-d7bb-4f9c-ab50-9b1b7376f4db"
      (reference "#PWR0253") (unit 1) (value "+3V3") (footprint "")
    )
    (path "/88610971-cbcc-4110-90e2-bb50e0d3112a/2960b42a-f4c6-43ff-86eb-d0571de5c67e"
      (reference "#PWR0254") (unit 1) (value "GND") (footprint "")
    )
    (path "/88610971-cbcc-4110-90e2-bb50e0d3112a/82996e6c-12c4-4e2b-a5fe-66c2d5cb2848"
      (reference "#PWR0255") (unit 1) (value "+BATT") (footprint "")
    )
    (path "/88610971-cbcc-4110-90e2-bb50e0d3112a/ae8df3bb-f32b-4c6d-aadb-917eb95fde98"
      (reference "#PWR0256") (unit 1) (value "GND") (footprint "")
    )
    (path "/88610971-cbcc-4110-90e2-bb50e0d3112a/e76b04a0-a45f-4ab7-8723-3f55704b51ab"
      (reference "#PWR0257") (unit 1) (value "GND") (footprint "")
    )
    (path "/88610971-cbcc-4110-90e2-bb50e0d3112a/427412a2-3034-4377-83cc-2d5577fe9828"
      (reference "#PWR0258") (unit 1) (value "+3V3") (footprint "")
    )
    (path "/88610971-cbcc-4110-90e2-bb50e0d3112a/5efb097f-564c-452f-a6c7-ece4fbea28c1"
      (reference "#PWR0259") (unit 1) (value "GND") (footprint "")
    )
    (path "/1669bc16-1636-4fde-a4cb-95c6656af335/9fd45f29-d655-42d2-83ba-e5f910bdd94a"
      (reference "#PWR0301") (unit 1) (value "+3V3-SWITCHED") (footprint "")
    )
    (path "/1669bc16-1636-4fde-a4cb-95c6656af335/c2150c65-6888-46c7-ab36-ef974a46fbe6"
      (reference "#PWR0302") (unit 1) (value "GND") (footprint "")
    )
    (path "/1669bc16-1636-4fde-a4cb-95c6656af335/94a7feca-16be-4f2f-bf22-29accaf624a7"
      (reference "#PWR0303") (unit 1) (value "GND") (footprint "")
    )
    (path "/1669bc16-1636-4fde-a4cb-95c6656af335/0894f94d-8907-4cec-8f2b-79f84ab37774"
      (reference "#PWR0304") (unit 1) (value "GND") (footprint "")
    )
    (path "/1669bc16-1636-4fde-a4cb-95c6656af335/8945a92d-4a03-46c4-8407-34f2ff4f6a89"
      (reference "#PWR0305") (unit 1) (value "GND") (footprint "")
    )
    (path "/1669bc16-1636-4fde-a4cb-95c6656af335/9c4a325b-729e-4e1a-9f1d-1ac2a2ac7036"
      (reference "#PWR0306") (unit 1) (value "GND") (footprint "")
    )
    (path "/1669bc16-1636-4fde-a4cb-95c6656af335/24d2a6ff-0d9d-4e45-b537-9c50307c11dc"
      (reference "#PWR0307") (unit 1) (value "GND") (footprint "")
    )
    (path "/1669bc16-1636-4fde-a4cb-95c6656af335/233fb7b5-4a64-448e-a7d9-df2ee6f62173"
      (reference "#PWR0308") (unit 1) (value "+3V3-SWITCHED") (footprint "")
    )
    (path "/1669bc16-1636-4fde-a4cb-95c6656af335/cc7bfa1c-21d1-4e4e-84d7-c0f60830995e"
      (reference "#PWR0309") (unit 1) (value "GND") (footprint "")
    )
    (path "/00180017-9cf3-4912-97a8-64ce8b07cfa7/fb592116-dc78-45b0-a2f3-57b8c985e2bb"
      (reference "#PWR0401") (unit 1) (value "+3V3-SWITCHED") (footprint "")
    )
    (path "/00180017-9cf3-4912-97a8-64ce8b07cfa7/84231861-f2e4-48a2-87bf-b76f3c0ae9d5"
      (reference "#PWR0402") (unit 1) (value "GND") (footprint "")
    )
    (path "/88610971-cbcc-4110-90e2-bb50e0d3112a/f7561e62-d1cf-454d-b38f-f5bf27bce6a2"
      (reference "C201") (unit 1) (value "15p") (footprint "Capacitor_SMD:C_0402_1005Metric")
    )
    (path "/88610971-cbcc-4110-90e2-bb50e0d3112a/65c7b335-50f8-4e94-8d86-a184c6bc3561"
      (reference "C202") (unit 1) (value "10µ") (footprint "Capacitor_SMD:C_0402_1005Metric")
    )
    (path "/88610971-cbcc-4110-90e2-bb50e0d3112a/7fa26435-6b6b-46ca-94e9-077b4552a5ce"
      (reference "C203") (unit 1) (value "15p") (footprint "Capacitor_SMD:C_0402_1005Metric")
    )
    (path "/88610971-cbcc-4110-90e2-bb50e0d3112a/e6848f87-9e82-4a77-aeab-3ae292f7cd81"
      (reference "C204") (unit 1) (value "100n") (footprint "Capacitor_SMD:C_0402_1005Metric")
    )
    (path "/88610971-cbcc-4110-90e2-bb50e0d3112a/64f88f7f-1488-4c17-ae53-847c3bed49fb"
      (reference "C205") (unit 1) (value "100n") (footprint "Capacitor_SMD:C_0402_1005Metric")
    )
    (path "/88610971-cbcc-4110-90e2-bb50e0d3112a/2ab76895-fbb1-4579-921c-c30ee54d0b13"
      (reference "C206") (unit 1) (value "100n") (footprint "Capacitor_SMD:C_0402_1005Metric")
    )
    (path "/88610971-cbcc-4110-90e2-bb50e0d3112a/cf8d39cf-e9be-4edf-8e48-6df6c1feef5d"
      (reference "C207") (unit 1) (value "100n") (footprint "Capacitor_SMD:C_0402_1005Metric")
    )
    (path "/88610971-cbcc-4110-90e2-bb50e0d3112a/546cb118-098b-4af5-9313-a4e8162b3056"
      (reference "C208") (unit 1) (value "1µ") (footprint "Capacitor_SMD:C_0402_1005Metric")
    )
    (path "/88610971-cbcc-4110-90e2-bb50e0d3112a/80e74d16-46ff-42ee-9acd-3629fe1a0469"
      (reference "C209") (unit 1) (value "100n") (footprint "Capacitor_SMD:C_0402_1005Metric")
    )
    (path "/88610971-cbcc-4110-90e2-bb50e0d3112a/4db3ff43-df7e-4d5d-9564-946ec496fe92"
      (reference "C210") (unit 1) (value "100n") (footprint "Capacitor_SMD:C_0402_1005Metric")
    )
    (path "/88610971-cbcc-4110-90e2-bb50e0d3112a/58f2e06c-7135-4977-a1fa-f8016497a2b2"
      (reference "C211") (unit 1) (value "100n") (footprint "Capacitor_SMD:C_0603_1608Metric")
    )
    (path "/88610971-cbcc-4110-90e2-bb50e0d3112a/754be823-e8c7-455c-b9e1-2b16742e851f"
      (reference "C212") (unit 1) (value "100n") (footprint "Capacitor_SMD:C_0603_1608Metric")
    )
    (path "/88610971-cbcc-4110-90e2-bb50e0d3112a/faa47df8-079a-4cf0-9532-c75cf51ad6aa"
      (reference "C213") (unit 1) (value "100n") (footprint "Capacitor_SMD:C_0603_1608Metric")
    )
    (path "/88610971-cbcc-4110-90e2-bb50e0d3112a/8bfebcc1-410a-4634-a4ea-07f229feef0b"
      (reference "C214") (unit 1) (value "22µ") (footprint "Capacitor_SMD:C_0603_1608Metric")
    )
    (path "/88610971-cbcc-4110-90e2-bb50e0d3112a/a567dc00-8b2a-4c79-87e3-9ce3dc2e620f"
      (reference "C215") (unit 1) (value "100n") (footprint "Capacitor_SMD:C_0603_1608Metric")
    )
    (path "/88610971-cbcc-4110-90e2-bb50e0d3112a/38eb7988-cc39-4cb3-bfaa-bf4a70a6697b"
      (reference "C216") (unit 1) (value "10µ") (footprint "Capacitor_SMD:C_0603_1608Metric")
    )
    (path "/88610971-cbcc-4110-90e2-bb50e0d3112a/93af07c7-d6c4-4dfa-9b5f-e902c9a8add1"
      (reference "C217") (unit 1) (value "100n") (footprint "Capacitor_SMD:C_0603_1608Metric")
    )
    (path "/88610971-cbcc-4110-90e2-bb50e0d3112a/8618e027-29cb-4475-b617-066dbf6dfea1"
      (reference "C218") (unit 1) (value "10µ") (footprint "Capacitor_SMD:C_0603_1608Metric")
    )
    (path "/88610971-cbcc-4110-90e2-bb50e0d3112a/7232742d-67a0-4f37-bf54-56fd44a58895"
      (reference "C219") (unit 1) (value "10µ") (footprint "Capacitor_SMD:C_0603_1608Metric")
    )
    (path "/88610971-cbcc-4110-90e2-bb50e0d3112a/2737c6a0-66cc-4a41-bcee-c175ac13a7e9"
      (reference "C220") (unit 1) (value "10µ") (footprint "Capacitor_SMD:C_0603_1608Metric")
    )
    (path "/1669bc16-1636-4fde-a4cb-95c6656af335/fcfb0e66-04da-4039-97d3-1a751d2a550d"
      (reference "C301") (unit 1) (value "1uF") (footprint "Capacitor_SMD:C_0603_1608Metric")
    )
    (path "/1669bc16-1636-4fde-a4cb-95c6656af335/9604db32-056c-4a7d-974a-457710a7798d"
      (reference "C302") (unit 1) (value "1uF") (footprint "Capacitor_SMD:C_0603_1608Metric")
    )
    (path "/1669bc16-1636-4fde-a4cb-95c6656af335/09dae7f5-9b94-4ea1-bedf-0dcc702f10ae"
      (reference "C303") (unit 1) (value "0.1uF") (footprint "Capacitor_SMD:C_0603_1608Metric")
    )
    (path "/1669bc16-1636-4fde-a4cb-95c6656af335/a1f0cfc9-23af-4faa-86fe-1abc768ffe93"
      (reference "C304") (unit 1) (value "1uF") (footprint "Capacitor_SMD:C_0603_1608Metric")
    )
    (path "/1669bc16-1636-4fde-a4cb-95c6656af335/15abcd1a-e1df-4dcd-8e77-6610cf15e815"
      (reference "C305") (unit 1) (value "1uF") (footprint "Capacitor_SMD:C_0603_1608Metric")
    )
    (path "/1669bc16-1636-4fde-a4cb-95c6656af335/c18a04e1-2742-4b32-8568-93c1aed954d4"
      (reference "C306") (unit 1) (value "1uF") (footprint "Capacitor_SMD:C_0603_1608Metric")
    )
    (path "/1669bc16-1636-4fde-a4cb-95c6656af335/54aba7f9-713f-4b0c-b7e8-cfe71d9d4230"
      (reference "C307") (unit 1) (value "1uF") (footprint "Capacitor_SMD:C_0603_1608Metric")
    )
    (path "/1669bc16-1636-4fde-a4cb-95c6656af335/1a02f059-a505-4068-9343-6be4505b3ac4"
      (reference "C308") (unit 1) (value "1uF") (footprint "Capacitor_SMD:C_0603_1608Metric")
    )
    (path "/1669bc16-1636-4fde-a4cb-95c6656af335/00b3984a-525d-47c8-89ad-7c7a71dd5d16"
      (reference "C309") (unit 1) (value "1uF") (footprint "Capacitor_SMD:C_0603_1608Metric")
    )
    (path "/1669bc16-1636-4fde-a4cb-95c6656af335/c5ddd112-b7a2-4639-9f66-6475ca910af1"
      (reference "C310") (unit 1) (value "1uF") (footprint "Capacitor_SMD:C_0603_1608Metric")
    )
    (path "/1669bc16-1636-4fde-a4cb-95c6656af335/d0969589-facd-430d-a52b-74c4e073ccb0"
      (reference "C311") (unit 1) (value "4.7uF/50V") (footprint "Capacitor_SMD:C_1206_3216Metric")
    )
    (path "/1669bc16-1636-4fde-a4cb-95c6656af335/0ac6cf46-ab93-4520-8402-ae9f8d2d47de"
      (reference "C312") (unit 1) (value "4.7uF/50V") (footprint "Capacitor_SMD:C_1206_3216Metric")
    )
    (path "/88610971-cbcc-4110-90e2-bb50e0d3112a/7fe5314e-c4c5-4d1f-9d5d-b8a0f908f646"
      (reference "D201") (unit 1) (value "SD103AW") (footprint "Diode_SMD:D_SOD-123")
    )
    (path "/88610971-cbcc-4110-90e2-bb50e0d3112a/23035b09-2b3d-400d-b843-4cf57f1d781c"
      (reference "D202") (unit 1) (value "SS54") (footprint "Diode_SMD:D_SMA")
    )
    (path "/88610971-cbcc-4110-90e2-bb50e0d3112a/60504b1c-6a1c-4e88-9510-cddd91dd0b02"
      (reference "D203") (unit 1) (value "LED1") (footprint "LED_SMD:LED_0805_2012Metric")
    )
    (path "/88610971-cbcc-4110-90e2-bb50e0d3112a/232708bb-8dc3-4f7d-8971-94bab6c492aa"
      (reference "D204") (unit 1) (value "LEDCHG") (footprint "Diode_SMD:D_0805_2012Metric")
    )
    (path "/88610971-cbcc-4110-90e2-bb50e0d3112a/164707b5-c16e-4aab-ac92-ee13004b668c"
      (reference "D205") (unit 1) (value "LED2") (footprint "LED_SMD:LED_0805_2012Metric")
    )
    (path "/1669bc16-1636-4fde-a4cb-95c6656af335/4036c7e1-44ef-4ba7-9d7f-ec3363fce416"
      (reference "D301") (unit 1) (value "SS14") (footprint "Diode_SMD:D_SMA")
    )
    (path "/1669bc16-1636-4fde-a4cb-95c6656af335/f4f8a9fe-a440-43ec-b602-e6d151d14e34"
      (reference "D302") (unit 1) (value "SS14") (footprint "Diode_SMD:D_SMA")
    )
    (path "/1669bc16-1636-4fde-a4cb-95c6656af335/190e5db4-2e78-4247-8e9e-f143f5a2a297"
      (reference "D303") (unit 1) (value "SS14") (footprint "Diode_SMD:D_SMA")
    )
    (path "/88610971-cbcc-4110-90e2-bb50e0d3112a/ed395bdf-1a48-4930-8df1-b4b74d725d88"
      (reference "J201") (unit 1) (value "JST-SMD") (footprint "Connector_JST:JST_PH_B2B-PH-SM4-TB_1x02-1MP_P2.00mm_Vertical")
    )
    (path "/88610971-cbcc-4110-90e2-bb50e0d3112a/50e8caeb-2088-414f-9041-47ead9437f6b"
      (reference "J202") (unit 1) (value "SWD") (footprint "Connector_PinHeader_1.27mm:PinHeader_2x05_P1.27mm_Vertical_SMD")
    )
    (path "/88610971-cbcc-4110-90e2-bb50e0d3112a/acdbc4cb-42b2-448f-bf4c-e392e9d10fce"
      (reference "J203") (unit 1) (value "UART") (footprint "Connector_PinHeader_2.54mm:PinHeader_1x04_P2.54mm_Vertical_SMD_Pin1Left")
    )
    (path "/88610971-cbcc-4110-90e2-bb50e0d3112a/7045c828-12c0-41c9-a695-7e3743f5ff8d"
      (reference "J204") (unit 1) (value "USB-C") (footprint "Connector_USB:USB_C_Receptacle_HRO_TYPE-C-31-M-12")
    )
    (path "/1669bc16-1636-4fde-a4cb-95c6656af335/8ecbb16e-d36a-4e37-8f9e-39c9c5389bef"
      (reference "J301") (unit 1) (value "PFC24-EPM") (footprint "Connector_FFC-FPC:Hirose_FH12-24S-0.5SH_1x24-1MP_P0.50mm_Horizontal")
    )
    (path "/00180017-9cf3-4912-97a8-64ce8b07cfa7/307ca3f2-ba5f-4274-b700-f2b0fd20ecb9"
      (reference "J401") (unit 1) (value "TF Card") (footprint "footprints:Conn_uSDcard")
    )
    (path "/1669bc16-1636-4fde-a4cb-95c6656af335/ce0e7b73-afe8-49e1-bc6d-da3afc3850ae"
      (reference "L301") (unit 1) (value "68uH") (footprint "footprints:L_4.5x4x3.2mm")
    )
    (path "/88610971-cbcc-4110-90e2-bb50e0d3112a/2bcf0d64-641a-4acc-b6e9-73c2f2f4f742"
      (reference "Q201") (unit 1) (value "AO3401A") (footprint "Package_TO_SOT_SMD:SOT-23")
    )
    (path "/1669bc16-1636-4fde-a4cb-95c6656af335/a5caf9f6-e03e-450e-bccc-1a8c713e9865"
      (reference "Q301") (unit 1) (value "SK3424") (footprint "Package_TO_SOT_SMD:SC-59")
    )
    (path "/88610971-cbcc-4110-90e2-bb50e0d3112a/f09bf48a-bd3e-48f3-8fb1-371b9e5a7b33"
      (reference "R201") (unit 1) (value "0") (footprint "Resistor_SMD:R_0603_1608Metric_Pad0.98x0.95mm_HandSolder")
    )
    (path "/88610971-cbcc-4110-90e2-bb50e0d3112a/76037792-5928-4a66-ba22-2dc11c197fb8"
      (reference "R202") (unit 1) (value "0") (footprint "Resistor_SMD:R_0603_1608Metric_Pad0.98x0.95mm_HandSolder")
    )
    (path "/88610971-cbcc-4110-90e2-bb50e0d3112a/c01dfab4-14d9-48cb-b104-d24db078cad4"
      (reference "R203") (unit 1) (value "0") (footprint "Resistor_SMD:R_0603_1608Metric_Pad0.98x0.95mm_HandSolder")
    )
    (path "/88610971-cbcc-4110-90e2-bb50e0d3112a/df9683b6-595a-4a4d-a275-64dfe0303cb5"
      (reference "R204") (unit 1) (value "10k") (footprint "Resistor_SMD:R_0603_1608Metric")
    )
    (path "/88610971-cbcc-4110-90e2-bb50e0d3112a/92617632-d53f-4b3b-9548-e8c7381b86a0"
      (reference "R205") (unit 1) (value "100k") (footprint "Resistor_SMD:R_0603_1608Metric")
    )
    (path "/88610971-cbcc-4110-90e2-bb50e0d3112a/8ef29e98-363d-4354-9a40-d77de1f94641"
      (reference "R206") (unit 1) (value "10k") (footprint "Resistor_SMD:R_0603_1608Metric")
    )
    (path "/88610971-cbcc-4110-90e2-bb50e0d3112a/b085039b-3b28-4b09-b368-4326a71a70c5"
      (reference "R207") (unit 1) (value "5.6k") (footprint "Resistor_SMD:R_0603_1608Metric")
    )
    (path "/88610971-cbcc-4110-90e2-bb50e0d3112a/a3c5547b-7671-41d7-b8f1-c7b2f1631292"
      (reference "R208") (unit 1) (value "10k") (footprint "Resistor_SMD:R_0603_1608Metric")
    )
    (path "/88610971-cbcc-4110-90e2-bb50e0d3112a/d2de7729-ffa9-4a93-bdbc-5671d473373a"
      (reference "R209") (unit 1) (value "5.1k") (footprint "Resistor_SMD:R_0603_1608Metric")
    )
    (path "/88610971-cbcc-4110-90e2-bb50e0d3112a/6da1de15-f855-4602-8b43-2928c807d85c"
      (reference "R210") (unit 1) (value "5.1k") (footprint "Resistor_SMD:R_0603_1608Metric")
    )
    (path "/88610971-cbcc-4110-90e2-bb50e0d3112a/a3e1255d-5d2f-4b96-9681-392edaa7f51f"
      (reference "R211") (unit 1) (value "10k") (footprint "Resistor_SMD:R_0603_1608Metric")
    )
    (path "/88610971-cbcc-4110-90e2-bb50e0d3112a/a98aaf15-7505-4677-921f-54517cbecc11"
      (reference "R212") (unit 1) (value "100k") (footprint "Resistor_SMD:R_0603_1608Metric")
    )
    (path "/88610971-cbcc-4110-90e2-bb50e0d3112a/e15a8878-f1f7-4010-b60f-cd2d6bbeadaa"
      (reference "R213") (unit 1) (value "10k") (footprint "Resistor_SMD:R_0603_1608Metric")
    )
    (path "/88610971-cbcc-4110-90e2-bb50e0d3112a/3052c92f-5908-4d26-b64f-0e26ac81267b"
      (reference "R214") (unit 1) (value "10k") (footprint "Resistor_SMD:R_0603_1608Metric")
    )
    (path "/88610971-cbcc-4110-90e2-bb50e0d3112a/d363e70f-0975-4e24-a749-c0f898fd0d8b"
      (reference "R215") (unit 1) (value "5.1k") (footprint "Resistor_SMD:R_0603_1608Metric")
    )
    (path "/88610971-cbcc-4110-90e2-bb50e0d3112a/7c6bfa24-1d93-4564-909e-b1a8a82ecdcf"
      (reference "R216") (unit 1) (value "10K") (footprint "Resistor_SMD:R_0603_1608Metric")
    )
    (path "/88610971-cbcc-4110-90e2-bb50e0d3112a/71845275-9ae2-4994-b9d1-ee41d45caf6a"
      (reference "R217") (unit 1) (value "10k") (footprint "Resistor_SMD:R_0603_1608Metric")
    )
    (path "/88610971-cbcc-4110-90e2-bb50e0d3112a/7f2410ab-cf5b-43a3-b332-39031129c69c"
      (reference "R218") (unit 1) (value "10K") (footprint "Resistor_SMD:R_0603_1608Metric")
    )
    (path "/1669bc16-1636-4fde-a4cb-95c6656af335/e4f6db07-a5b3-43ef-82a6-f40810e9221d"
      (reference "R301") (unit 1) (value "10k") (footprint "Resistor_SMD:R_0603_1608Metric")
    )
    (path "/1669bc16-1636-4fde-a4cb-95c6656af335/76af94e2-2250-4288-a448-f18ab5ba0b5e"
      (reference "R302") (unit 1) (value "0.47R") (footprint "Resistor_SMD:R_0603_1608Metric")
    )
    (path "/88610971-cbcc-4110-90e2-bb50e0d3112a/cd9b8d6e-14c9-4236-bf9c-0846f3ea82aa"
      (reference "SW201") (unit 1) (value "BTN2") (footprint "Button_Switch_SMD:SW_Push_1P1T_NO_6x6mm_H9.5mm")
    )
    (path "/88610971-cbcc-4110-90e2-bb50e0d3112a/55b59035-6fe4-48cd-89a1-12ee2803c39b"
      (reference "SW202") (unit 1) (value "BTN1") (footprint "Button_Switch_SMD:SW_Push_1P1T_NO_6x6mm_H9.5mm")
    )
    (path "/88610971-cbcc-4110-90e2-bb50e0d3112a/ec046cab-54bb-4c7a-a6b8-dda1467e610d"
      (reference "SW203") (unit 1) (value "RESET") (footprint "Button_Switch_SMD:SW_Push_1P1T_NO_6x6mm_H9.5mm")
    )
    (path "/88610971-cbcc-4110-90e2-bb50e0d3112a/ea6ae10d-c0dc-4ea5-80b7-88805a76932e"
      (reference "U201") (unit 1) (value "STM32L073RBT6") (footprint "footprints:STM32L073RBT6")
    )
    (path "/88610971-cbcc-4110-90e2-bb50e0d3112a/93918415-c16f-4193-bcfb-da8939aed816"
      (reference "U201") (unit 2) (value "STM32L073RBT6") (footprint "footprints:STM32L073RBT6")
    )
    (path "/88610971-cbcc-4110-90e2-bb50e0d3112a/cfbbaa47-4430-4156-8dfc-aeb5e7f06b5a"
      (reference "U202") (unit 1) (value "TPS2051B") (footprint "Package_TO_SOT_SMD:SOT-23-5")
    )
    (path "/88610971-cbcc-4110-90e2-bb50e0d3112a/7291699d-fd89-4944-a4f9-996f282db3a1"
      (reference "U203") (unit 1) (value "MCP73831-2-OT") (footprint "Package_TO_SOT_SMD:SOT-23-5")
    )
    (path "/88610971-cbcc-4110-90e2-bb50e0d3112a/a2492a9d-6e26-4a7d-afb6-98270801e1a1"
      (reference "U204") (unit 1) (value "RT9080-33GJ5") (footprint "Package_TO_SOT_SMD:SOT-23-5")
    )
    (path "/88610971-cbcc-4110-90e2-bb50e0d3112a/0524c2d9-6bfe-45ee-a6c3-c534ab21f465"
      (reference "Y201") (unit 1) (value "32.768kHz") (footprint "Crystal:Crystal_SMD_3215-2Pin_3.2x1.5mm")
    )
  )
)
