<?xml version="1.0" encoding="UTF-8" standalone="no"?>
<!-- Created with Inkscape (http://www.inkscape.org/) -->

<svg
   width="140.5mm"
   height="107.5mm"
   viewBox="0 0 140.5 107.5"
   version="1.1"
   id="svg5"
   inkscape:version="1.1.1 (3bf5ae0d25, 2021-09-20, custom)"
   sodipodi:docname="picoframe.svg"
   xmlns:inkscape="http://www.inkscape.org/namespaces/inkscape"
   xmlns:sodipodi="http://sodipodi.sourceforge.net/DTD/sodipodi-0.dtd"
   xmlns="http://www.w3.org/2000/svg"
   xmlns:svg="http://www.w3.org/2000/svg">
  <sodipodi:namedview
     id="namedview7"
     pagecolor="#ffffff"
     bordercolor="#666666"
     borderopacity="1.0"
     inkscape:pageshadow="2"
     inkscape:pageopacity="0.0"
     inkscape:pagecheckerboard="0"
     inkscape:document-units="mm"
     showgrid="false"
     inkscape:snap-object-midpoints="true"
     inkscape:snap-intersection-paths="true"
     inkscape:snap-midpoints="true"
     inkscape:zoom="0.8376873"
     inkscape:cx="118.77941"
     inkscape:cy="165.93304"
     inkscape:window-width="1888"
     inkscape:window-height="1006"
     inkscape:window-x="1936"
     inkscape:window-y="58"
     inkscape:window-maximized="1"
     inkscape:current-layer="text65311" />
  <defs
     id="defs2">
    <rect
       x="103.3751"
       y="104.4953"
       width="463.00695"
       height="248.90466"
       id="rect65313" />
    <rect
       x="129.01789"
       y="90.201601"
       width="395.55007"
       height="247.18425"
       id="rect3333" />
  </defs>
  <g
     inkscape:label="Layer 1"
     inkscape:groupmode="layer"
     id="layer1">
    <g
       aria-label="pico
   frame"
       transform="matrix(0.248627,-0.09049283,0.09049283,0.248627,-29.008722,17.277015)"
       id="text65311"
       style="font-size:96px;line-height:1.25;white-space:pre;shape-inside:url(#rect65313)">
      <path
         d="m 110.40625,145.37109 q 0,-0.84375 0.46875,-1.59375 0.5625,-0.84375 1.3125,-1.21875 6.75,-2.8125 14.34375,-2.8125 6.46875,0 11.8125,2.625 5.34375,2.625 8.625,8.34375 3.28125,5.625 3.28125,14.34375 0,8.71875 -3.28125,14.4375 -3.28125,5.625 -8.625,8.25 -5.34375,2.625 -11.8125,2.625 -3.1875,0 -6.28125,-0.5625 v 19.78125 q 0,1.40625 -0.9375,2.34375 -0.9375,0.9375 -2.34375,0.9375 h -3.28125 q -1.40625,0 -2.34375,-0.9375 -0.9375,-0.9375 -0.9375,-2.34375 z m 9.84375,35.71875 q 3,0.46875 5.34375,0.46875 6.65625,0 10.6875,-3.75 4.03125,-3.84375 4.03125,-12.75 0,-16.125 -13.78125,-16.125 -3.375,0 -6.28125,0.65625 z"
         style="font-weight:bold;font-family:'mononoki Nerd Font';-inkscape-font-specification:'mononoki Nerd Font Bold'"
         id="path88220" />
      <path
         d="m 185.875,116.30859 q 1.40625,0 2.34375,0.9375 0.9375,0.84375 0.9375,2.34375 v 6.1875 q 0,1.40625 -0.9375,2.34375 -0.84375,0.9375 -2.34375,0.9375 h -6.09375 q -1.40625,0 -2.34375,-0.9375 -0.9375,-0.9375 -0.9375,-2.34375 v -6.1875 q 0,-1.40625 0.9375,-2.34375 0.9375,-0.9375 2.34375,-0.9375 z m 15,64.03125 q 1.40625,0 2.34375,0.9375 0.9375,0.9375 0.9375,2.34375 v 2.53125 q 0,1.40625 -0.9375,2.34375 -0.9375,0.9375 -2.34375,0.9375 h -33.28125 q -1.40625,0 -2.34375,-0.9375 -0.9375,-0.9375 -0.9375,-2.34375 v -2.53125 q 0,-1.40625 0.9375,-2.34375 0.9375,-0.9375 2.34375,-0.9375 h 11.71875 v -30.65625 h -8.625 q -1.40625,0 -2.34375,-0.9375 -0.9375,-0.9375 -0.9375,-2.34375 v -2.4375 q 0,-1.5 0.9375,-2.34375 0.9375,-0.9375 2.34375,-0.9375 h 15.1875 q 1.40625,0 2.34375,0.9375 0.9375,0.84375 0.9375,2.34375 v 36.375 z"
         style="font-weight:bold;font-family:'mononoki Nerd Font';-inkscape-font-specification:'mononoki Nerd Font Bold'"
         id="path88222" />
      <path
         d="m 257.125,149.21484 q -0.375,0.9375 -1.21875,1.5 -0.75,0.5625 -1.6875,0.5625 -0.5625,0 -1.21875,-0.28125 -6.09375,-2.0625 -11.0625,-2.0625 -13.78125,0 -13.78125,16.125 0,16.125 13.78125,16.125 2.71875,0 5.25,-0.46875 2.53125,-0.46875 5.71875,-1.59375 0.75,-0.28125 1.3125,-0.28125 1.03125,0 1.78125,0.5625 0.75,0.5625 1.125,1.5 l 0.9375,2.25 q 0.28125,0.65625 0.28125,1.5 0,0.9375 -0.5625,1.6875 -0.46875,0.75 -1.40625,1.125 -6.65625,2.90625 -14.4375,2.90625 -6.46875,0 -11.8125,-2.625 -5.34375,-2.625 -8.625,-8.25 -3.28125,-5.71875 -3.28125,-14.4375 0,-8.71875 3.28125,-14.34375 3.28125,-5.71875 8.625,-8.34375 5.34375,-2.625 11.8125,-2.625 7.78125,0 14.4375,2.90625 0.9375,0.375 1.40625,1.125 0.5625,0.75 0.5625,1.6875 0,0.75 -0.28125,1.5 z"
         style="font-weight:bold;font-family:'mononoki Nerd Font';-inkscape-font-specification:'mononoki Nerd Font Bold'"
         id="path88224" />
      <path
         d="m 292.375,139.55859 q 9.09375,0 14.34375,6.84375 5.25,6.84375 5.25,18.65625 0,11.8125 -5.25,18.65625 -5.25,6.84375 -14.34375,6.84375 -6.09375,0 -10.6875,-3.09375 -4.59375,-3.1875 -7.125,-8.90625 -2.4375,-5.8125 -2.4375,-13.5 0,-7.6875 2.4375,-13.40625 2.53125,-5.8125 7.125,-8.90625 4.59375,-3.1875 10.6875,-3.1875 z m -0.28125,41.90625 q 4.6875,0 7.3125,-4.3125 2.71875,-4.40625 2.71875,-12.09375 0,-7.6875 -2.71875,-12 -2.625,-4.40625 -7.3125,-4.40625 -4.6875,0 -7.40625,4.40625 -2.71875,4.40625 -2.71875,12 0,7.59375 2.71875,12 2.71875,4.40625 7.40625,4.40625 z"
         style="font-weight:bold;font-family:'mononoki Nerd Font';-inkscape-font-specification:'mononoki Nerd Font Bold'"
         id="path88226" />
      <path
         d="m 311.5,245.11926 q -0.375,0.9375 -1.21875,1.5 -0.75,0.5625 -1.6875,0.5625 -0.5625,0 -1.3125,-0.28125 -3.65625,-1.21875 -6.75,-1.21875 -4.03125,0 -6.09375,2.625 -1.96875,2.53125 -1.96875,9.1875 v 3.65625 h 14.34375 q 1.40625,0 2.34375,0.9375 0.9375,0.9375 0.9375,2.34375 v 2.4375 q 0,1.40625 -0.9375,2.34375 -0.9375,0.9375 -2.34375,0.9375 H 292.375 v 36.46875 q 0,1.40625 -0.9375,2.34375 -0.9375,0.9375 -2.34375,0.9375 h -3.28125 q -1.5,0 -2.4375,-0.9375 -0.84375,-0.9375 -0.84375,-2.34375 v -36.46875 h -8.0625 q -1.40625,0 -2.34375,-0.84375 -0.9375,-0.9375 -0.9375,-2.4375 v -2.4375 q 0,-1.40625 0.9375,-2.34375 0.9375,-0.9375 2.34375,-0.9375 h 8.0625 v -3.65625 q 0,-10.875 5.15625,-15.9375 5.15625,-5.0625 12.84375,-5.0625 4.96875,0 10.125,1.875 1.03125,0.375 1.59375,1.125 0.5625,0.75 0.5625,1.78125 0,0.65625 -0.28125,1.40625 z"
         style="font-weight:bold;font-family:'mononoki Nerd Font';-inkscape-font-specification:'mononoki Nerd Font Bold'"
         id="path88228" />
      <path
         d="m 326.03125,264.80676 q 0,-1.3125 0.84375,-2.25 0.84375,-0.9375 2.15625,-1.21875 7.5,-1.125 16.03125,-1.125 11.15625,0 15.9375,3.75 4.875,3.65625 4.875,12.375 0,1.5 -0.9375,2.4375 -0.84375,0.84375 -2.34375,0.84375 h -3.28125 q -1.40625,0 -2.34375,-0.9375 -0.9375,-0.9375 -0.9375,-2.34375 0,-3.9375 -2.4375,-5.53125 -2.4375,-1.59375 -8.53125,-1.59375 -3.46875,0 -9.1875,0.28125 v 37.125 q 0,1.40625 -0.9375,2.34375 -0.84375,0.9375 -2.34375,0.9375 h -3.28125 q -1.40625,0 -2.34375,-0.9375 -0.9375,-0.9375 -0.9375,-2.34375 z"
         style="font-weight:bold;font-family:'mononoki Nerd Font';-inkscape-font-specification:'mononoki Nerd Font Bold'"
         id="path88230" />
      <path
         d="m 417.90625,306.24426 q 0,1.40625 -0.84375,2.34375 -0.84375,0.9375 -2.25,1.125 -9.28125,1.125 -15.1875,1.125 -9.75,0 -15.09375,-3.65625 -5.25,-3.75 -5.34375,-10.78125 0,-7.125 5.34375,-10.78125 5.34375,-3.75 15.375,-3.75 h 8.15625 v -2.8125 q 0,-5.25 -2.15625,-7.5 -2.15625,-2.34375 -7.3125,-2.34375 -5.25,0 -10.21875,0.84375 -1.40625,0.1875 -2.625,-0.46875 -1.125,-0.65625 -1.3125,-2.0625 l -0.28125,-2.53125 q -0.1875,-1.40625 0.46875,-2.4375 0.65625,-1.03125 2.0625,-1.3125 5.625,-1.03125 11.90625,-1.03125 10.03125,0 14.625,4.59375 4.6875,4.5 4.6875,14.25 z m -18,-15.28125 q -5.4375,0 -8.15625,1.40625 -2.625,1.40625 -2.625,4.03125 0,5.53125 11.0625,5.53125 3.1875,0 7.875,-0.46875 v -10.5 z"
         style="font-weight:bold;font-family:'mononoki Nerd Font';-inkscape-font-specification:'mononoki Nerd Font Bold'"
         id="path88232" />
      <path
         d="m 463.1875,260.40051 q 7.125,0 10.40625,3.75 3.28125,3.75 3.28125,11.8125 v 30.65625 q 0,1.5 -0.9375,2.4375 -0.84375,0.84375 -2.34375,0.84375 h -3.28125 q -1.5,0 -2.4375,-0.84375 -0.84375,-0.9375 -0.84375,-2.4375 v -30.46875 q 0,-3.84375 -1.3125,-5.25 -1.3125,-1.5 -4.78125,-1.5 -1.40625,0 -2.90625,0.1875 0.65625,2.625 0.65625,6.5625 v 30.46875 q 0,1.5 -0.84375,2.4375 -0.84375,0.84375 -2.4375,0.84375 H 452.125 q -1.5,0 -2.4375,-0.84375 -0.84375,-0.9375 -0.84375,-2.4375 v -30.46875 q 0,-3.84375 -1.3125,-5.25 -1.3125,-1.5 -4.78125,-1.5 l -2.25,0.0937 v 37.125 q 0,1.5 -0.84375,2.4375 -0.84375,0.84375 -2.4375,0.84375 h -3.28125 q -1.5,0 -2.4375,-0.84375 -0.84375,-0.9375 -0.84375,-2.4375 v -41.53125 q 0,-1.3125 0.75,-2.25 0.75,-0.9375 2.15625,-1.21875 6.75,-1.21875 10.96875,-1.21875 5.8125,0 9,2.0625 4.875,-2.0625 9.65625,-2.0625 z"
         style="font-weight:bold;font-family:'mononoki Nerd Font';-inkscape-font-specification:'mononoki Nerd Font Bold'"
         id="path88234" />
      <path
         d="m 527.59375,303.61926 q 0.28125,0.84375 0.28125,1.5 0,1.96875 -1.96875,2.8125 -6.9375,2.90625 -14.4375,2.90625 -11.15625,0 -17.4375,-6.65625 -6.28125,-6.75 -6.28125,-18.65625 0,-7.40625 2.53125,-13.125 2.625,-5.8125 7.21875,-9 4.6875,-3.1875 10.59375,-3.1875 5.53125,0 9.9375,2.8125 4.5,2.8125 7.03125,7.875 2.53125,4.96875 2.53125,11.34375 v 2.15625 q 0,1.5 -0.9375,2.4375 -0.84375,0.84375 -2.34375,0.84375 h -26.625 q 1.03125,13.96875 13.78125,13.96875 4.875,0 10.96875,-2.0625 0.75,-0.28125 1.5,-0.28125 1.875,0 2.71875,2.0625 z M 508.1875,269.21301 q -3.65625,0 -6.375,2.625 -2.625,2.625 -3.375,6.75 H 517.75 q -0.46875,-4.125 -3.1875,-6.75 -2.625,-2.625 -6.375,-2.625 z"
         style="font-weight:bold;font-family:'mononoki Nerd Font';-inkscape-font-specification:'mononoki Nerd Font Bold'"
         id="path88236" />
    </g>
    <circle
       id="path43016"
       style="fill:#000000;stroke:#000000;stroke-width:0.264583"
       cx="75.20565"
       cy="87.31456"
       r="0.072752863" />
    <circle
       id="path43018"
       style="fill:#000000;stroke:#000000;stroke-width:0.264583"
       cx="75.20565"
       cy="87.31456"
       r="0.072752863" />
    <g
       id="g88159"
       transform="rotate(-20,75.107301,112.75233)">
      <circle
         id="path42801"
         cx="75.1073"
         cy="87.226974"
         r="7.2713933"
         style="stroke-width:0.264583" />
      <rect
         id="rect43114"
         width="14.542788"
         height="58.322102"
         x="67.835907"
         y="87.226974"
         style="stroke-width:0.549784" />
    </g>
    <g
       id="g88163"
       transform="rotate(-20,120.45057,101.25541)">
      <circle
         id="path42367"
         cx="120.45057"
         cy="67.74865"
         r="5.4674454"
         style="stroke-width:0.264583" />
      <rect
         id="rect43114-0"
         width="10.934893"
         height="72.480972"
         x="114.98312"
         y="67.74865"
         style="stroke-width:0.531461" />
    </g>
    <g
       id="g81253"
       transform="rotate(-20,14.646943,111.22636)">
      <circle
         id="path42365"
         cx="14.646943"
         cy="80.41246"
         r="8.4327059"
         style="stroke-width:0.264583" />
      <rect
         id="rect43114-8"
         width="16.865412"
         height="70.060501"
         x="6.2142372"
         y="80.41246"
         style="stroke-width:0.648914" />
    </g>
    <g
       id="g88155"
       transform="rotate(-20,36.549575,114.28365)">
      <circle
         id="path42605"
         cx="36.549576"
         cy="80.413162"
         r="4.8390098"
         style="stroke-width:0.264583" />
      <rect
         id="rect43114-85"
         width="9.6780233"
         height="72.579987"
         x="31.710564"
         y="80.413162"
         style="stroke-width:0.500328" />
    </g>
    <g
       id="g81241"
       transform="rotate(-20,24.571259,-9.4251082)">
      <circle
         id="path42799"
         cx="24.571259"
         cy="20.184557"
         r="5.177568"
         style="stroke-width:0.264583" />
      <rect
         id="rect43114-09"
         width="10.355141"
         height="64.396896"
         x="19.393688"
         y="-44.212341"
         style="stroke-width:0.487487" />
    </g>
    <g
       id="g81245"
       transform="rotate(-20,108.47485,16.916907)">
      <circle
         id="path42369"
         cx="113.50187"
         cy="14.388519"
         r="7.903501"
         style="stroke-width:0.264583" />
      <rect
         id="rect43114-6"
         width="15.807008"
         height="59.866741"
         x="105.59837"
         y="-45.478222"
         style="stroke-width:0.580724" />
    </g>
    <g
       id="g81249"
       transform="rotate(-20,125.31807,11.444286)">
      <circle
         id="path42607"
         cx="130.34509"
         cy="10.139805"
         r="4.7810407"
         style="stroke-width:0.264583" />
      <rect
         id="rect43114-3"
         width="9.5620861"
         height="59.192093"
         x="125.56405"
         y="-49.052288"
         style="stroke-width:0.449117" />
    </g>
  </g>
</svg>
