%FSLAX45Y45*%
G04 Gerber Fmt 4.5, Leading zero omitted, Abs format (unit mm)*
G04 Created by KiCad (PCBNEW (6.0.5)) date 2022-05-31 09:22:18*
%MOMM*%
%LPD*%
G01*
G04 APERTURE LIST*
%TA.AperFunction,Profile*%
%ADD10C,0.050000*%
%TD*%
%ADD11C,0.200000*%
%ADD12C,0.030000*%
%ADD13C,0.040000*%
%ADD14C,0.060000*%
G04 APERTURE END LIST*
D10*
X12801777Y-14726777D02*
X8376777Y-14726777D01*
X21726777Y-14726777D02*
G75*
G03*
X21976777Y-14476777I3J249997D01*
G01*
X21976773Y-4926777D02*
G75*
G03*
X21726777Y-4676777I-249993J7D01*
G01*
X8376777Y-4676777D02*
G75*
G03*
X8126777Y-4926777I3J-250003D01*
G01*
X8126777Y-4926777D02*
X8126777Y-14476777D01*
X17301777Y-4676777D02*
X16801777Y-4176777D01*
X8126783Y-14476777D02*
G75*
G03*
X8376777Y-14726777I249997J-3D01*
G01*
X17301777Y-14726777D02*
X16801777Y-14226777D01*
X17301777Y-14726777D02*
X21726777Y-14726777D01*
X17301777Y-4676777D02*
X21726777Y-4676777D01*
X8376777Y-4676777D02*
X12801777Y-4676777D01*
X16801777Y-14226777D02*
X13301777Y-14226777D01*
X21976777Y-14476777D02*
X21976777Y-4926777D01*
X13301777Y-4176777D02*
X16801777Y-4176777D01*
X12801777Y-14726777D02*
X13301777Y-14226777D01*
X12801777Y-4676777D02*
X13301777Y-4176777D01*
D11*
D12*
X8545000Y-6805000D02*
X8575000Y-6835000D01*
X8575000Y-6805000D02*
X8545000Y-6835000D01*
X8545000Y-7165000D02*
X8575000Y-7195000D01*
X8575000Y-7165000D02*
X8545000Y-7195000D01*
X8945000Y-6185000D02*
X8975000Y-6215000D01*
X8975000Y-6185000D02*
X8945000Y-6215000D01*
X10045000Y-6385000D02*
X10075000Y-6415000D01*
X10075000Y-6385000D02*
X10045000Y-6415000D01*
X10305000Y-6185000D02*
X10335000Y-6215000D01*
X10335000Y-6185000D02*
X10305000Y-6215000D01*
X11155000Y-5935000D02*
X11185000Y-5965000D01*
X11185000Y-5935000D02*
X11155000Y-5965000D01*
X11465000Y-6465000D02*
X11495000Y-6495000D01*
X11495000Y-6465000D02*
X11465000Y-6495000D01*
X12385000Y-5525000D02*
X12415000Y-5555000D01*
X12415000Y-5525000D02*
X12385000Y-5555000D01*
X13119000Y-6111000D02*
X13149000Y-6141000D01*
X13149000Y-6111000D02*
X13119000Y-6141000D01*
X13245000Y-6765000D02*
X13275000Y-6795000D01*
X13275000Y-6765000D02*
X13245000Y-6795000D01*
X13345000Y-5525000D02*
X13375000Y-5555000D01*
X13375000Y-5525000D02*
X13345000Y-5555000D01*
X13525000Y-6385000D02*
X13555000Y-6415000D01*
X13555000Y-6385000D02*
X13525000Y-6415000D01*
X13525000Y-6285000D02*
X13555000Y-6315000D01*
X13555000Y-6285000D02*
X13525000Y-6315000D01*
X13625000Y-7485000D02*
X13655000Y-7515000D01*
X13655000Y-7485000D02*
X13625000Y-7515000D01*
X13665000Y-11405000D02*
X13695000Y-11435000D01*
X13695000Y-11405000D02*
X13665000Y-11435000D01*
X13705000Y-7185000D02*
X13735000Y-7215000D01*
X13735000Y-7185000D02*
X13705000Y-7215000D01*
X14345000Y-7105000D02*
X14375000Y-7135000D01*
X14375000Y-7105000D02*
X14345000Y-7135000D01*
X14510000Y-5070000D02*
X14540000Y-5100000D01*
X14540000Y-5070000D02*
X14510000Y-5100000D01*
X14785000Y-7360000D02*
X14815000Y-7390000D01*
X14815000Y-7360000D02*
X14785000Y-7390000D01*
X14805000Y-5685000D02*
X14835000Y-5715000D01*
X14835000Y-5685000D02*
X14805000Y-5715000D01*
X14910000Y-4695000D02*
X14940000Y-4725000D01*
X14940000Y-4695000D02*
X14910000Y-4725000D01*
X14985000Y-4595000D02*
X15015000Y-4625000D01*
X15015000Y-4595000D02*
X14985000Y-4625000D01*
X15010000Y-11680000D02*
X15040000Y-11710000D01*
X15040000Y-11680000D02*
X15010000Y-11710000D01*
X15045000Y-10985000D02*
X15075000Y-11015000D01*
X15075000Y-10985000D02*
X15045000Y-11015000D01*
X15060000Y-4695000D02*
X15090000Y-4725000D01*
X15090000Y-4695000D02*
X15060000Y-4725000D01*
X15105000Y-7925000D02*
X15135000Y-7955000D01*
X15135000Y-7925000D02*
X15105000Y-7955000D01*
X15125000Y-10985000D02*
X15155000Y-11015000D01*
X15155000Y-10985000D02*
X15125000Y-11015000D01*
X15145000Y-7325000D02*
X15175000Y-7355000D01*
X15175000Y-7325000D02*
X15145000Y-7355000D01*
X15160000Y-4595000D02*
X15190000Y-4625000D01*
X15190000Y-4595000D02*
X15160000Y-4625000D01*
X15205000Y-11145000D02*
X15235000Y-11175000D01*
X15235000Y-11145000D02*
X15205000Y-11175000D01*
X15285000Y-11145000D02*
X15315000Y-11175000D01*
X15315000Y-11145000D02*
X15285000Y-11175000D01*
X15365000Y-11145000D02*
X15395000Y-11175000D01*
X15395000Y-11145000D02*
X15365000Y-11175000D01*
X15385000Y-5365000D02*
X15415000Y-5395000D01*
X15415000Y-5365000D02*
X15385000Y-5395000D01*
X15385000Y-5465000D02*
X15415000Y-5495000D01*
X15415000Y-5465000D02*
X15385000Y-5495000D01*
X15385000Y-5565000D02*
X15415000Y-5595000D01*
X15415000Y-5565000D02*
X15385000Y-5595000D01*
X15385000Y-5665000D02*
X15415000Y-5695000D01*
X15415000Y-5665000D02*
X15385000Y-5695000D01*
X15385000Y-5765000D02*
X15415000Y-5795000D01*
X15415000Y-5765000D02*
X15385000Y-5795000D01*
X15414000Y-7574000D02*
X15444000Y-7604000D01*
X15444000Y-7574000D02*
X15414000Y-7604000D01*
X15445000Y-11145000D02*
X15475000Y-11175000D01*
X15475000Y-11145000D02*
X15445000Y-11175000D01*
X15510000Y-5070000D02*
X15540000Y-5100000D01*
X15540000Y-5070000D02*
X15510000Y-5100000D01*
X15805000Y-11405000D02*
X15835000Y-11435000D01*
X15835000Y-11405000D02*
X15805000Y-11435000D01*
X16141000Y-6281000D02*
X16171000Y-6311000D01*
X16171000Y-6281000D02*
X16141000Y-6311000D01*
X16185000Y-7025000D02*
X16215000Y-7055000D01*
X16215000Y-7025000D02*
X16185000Y-7055000D01*
X16225000Y-11785000D02*
X16255000Y-11815000D01*
X16255000Y-11785000D02*
X16225000Y-11815000D01*
X16235000Y-11235000D02*
X16265000Y-11265000D01*
X16265000Y-11235000D02*
X16235000Y-11265000D01*
X16355000Y-6635000D02*
X16385000Y-6665000D01*
X16385000Y-6635000D02*
X16355000Y-6665000D01*
X16445000Y-6705000D02*
X16475000Y-6735000D01*
X16475000Y-6705000D02*
X16445000Y-6735000D01*
X16525000Y-6785000D02*
X16555000Y-6815000D01*
X16555000Y-6785000D02*
X16525000Y-6815000D01*
X16625000Y-6572549D02*
X16655000Y-6602549D01*
X16655000Y-6572549D02*
X16625000Y-6602549D01*
X16725000Y-6505000D02*
X16755000Y-6535000D01*
X16755000Y-6505000D02*
X16725000Y-6535000D01*
X16825000Y-6445000D02*
X16855000Y-6475000D01*
X16855000Y-6445000D02*
X16825000Y-6475000D01*
X17005000Y-7125000D02*
X17035000Y-7155000D01*
X17035000Y-7125000D02*
X17005000Y-7155000D01*
X17070000Y-8400000D02*
X17100000Y-8430000D01*
X17100000Y-8400000D02*
X17070000Y-8430000D01*
X17085000Y-7045000D02*
X17115000Y-7075000D01*
X17115000Y-7045000D02*
X17085000Y-7075000D01*
X17185000Y-5765000D02*
X17215000Y-5795000D01*
X17215000Y-5765000D02*
X17185000Y-5795000D01*
X17245000Y-5565000D02*
X17275000Y-5595000D01*
X17275000Y-5565000D02*
X17245000Y-5595000D01*
X17305000Y-5465000D02*
X17335000Y-5495000D01*
X17335000Y-5465000D02*
X17305000Y-5495000D01*
X17385000Y-5665000D02*
X17415000Y-5695000D01*
X17415000Y-5665000D02*
X17385000Y-5695000D01*
X17445000Y-11645000D02*
X17475000Y-11675000D01*
X17475000Y-11645000D02*
X17445000Y-11675000D01*
X17465000Y-5365000D02*
X17495000Y-5395000D01*
X17495000Y-5365000D02*
X17465000Y-5395000D01*
X17515000Y-8035000D02*
X17545000Y-8065000D01*
X17545000Y-8035000D02*
X17515000Y-8065000D01*
X17965000Y-11805000D02*
X17995000Y-11835000D01*
X17995000Y-11805000D02*
X17965000Y-11835000D01*
X18025000Y-5785000D02*
X18055000Y-5815000D01*
X18055000Y-5785000D02*
X18025000Y-5815000D01*
X18285000Y-12585000D02*
X18315000Y-12615000D01*
X18315000Y-12585000D02*
X18285000Y-12615000D01*
X18452500Y-11117500D02*
X18482500Y-11147500D01*
X18482500Y-11117500D02*
X18452500Y-11147500D01*
X18480000Y-5950000D02*
X18510000Y-5980000D01*
X18510000Y-5950000D02*
X18480000Y-5980000D01*
X18530000Y-8360000D02*
X18560000Y-8390000D01*
X18560000Y-8360000D02*
X18530000Y-8390000D01*
X18665000Y-6425000D02*
X18695000Y-6455000D01*
X18695000Y-6425000D02*
X18665000Y-6455000D01*
X18925000Y-10805000D02*
X18955000Y-10835000D01*
X18955000Y-10805000D02*
X18925000Y-10835000D01*
X18957500Y-11917500D02*
X18987500Y-11947500D01*
X18987500Y-11917500D02*
X18957500Y-11947500D01*
X19205000Y-7025000D02*
X19235000Y-7055000D01*
X19235000Y-7025000D02*
X19205000Y-7055000D01*
X19445000Y-5605000D02*
X19475000Y-5635000D01*
X19475000Y-5605000D02*
X19445000Y-5635000D01*
X19445000Y-6265000D02*
X19475000Y-6295000D01*
X19475000Y-6265000D02*
X19445000Y-6295000D01*
X19565000Y-7005000D02*
X19595000Y-7035000D01*
X19595000Y-7005000D02*
X19565000Y-7035000D01*
X19670000Y-6380000D02*
X19700000Y-6410000D01*
X19700000Y-6380000D02*
X19670000Y-6410000D01*
X20285000Y-6565000D02*
X20315000Y-6595000D01*
X20315000Y-6565000D02*
X20285000Y-6595000D01*
X20910000Y-5510000D02*
X20940000Y-5540000D01*
X20940000Y-5510000D02*
X20910000Y-5540000D01*
X21805000Y-6805000D02*
X21835000Y-6835000D01*
X21835000Y-6805000D02*
X21805000Y-6835000D01*
D13*
X15020000Y-12580000D02*
G75*
G03*
X15020000Y-12580000I-20000J0D01*
G01*
X15320000Y-12580000D02*
G75*
G03*
X15320000Y-12580000I-20000J0D01*
G01*
X15645000Y-12615000D02*
G75*
G03*
X15645000Y-12615000I-20000J0D01*
G01*
X15840000Y-11920000D02*
G75*
G03*
X15840000Y-11920000I-20000J0D01*
G01*
D14*
X14618000Y-4319000D02*
X14618000Y-4379000D01*
X14588000Y-4349000D02*
X14648000Y-4349000D01*
D11*
X14638000Y-4379000D02*
X14638000Y-4319000D01*
X14598000Y-4379000D02*
X14598000Y-4319000D01*
X14638000Y-4319000D02*
G75*
G03*
X14598000Y-4319000I-20000J0D01*
G01*
X14598000Y-4379000D02*
G75*
G03*
X14638000Y-4379000I20000J0D01*
G01*
D14*
X14618000Y-4737000D02*
X14618000Y-4797000D01*
X14588000Y-4767000D02*
X14648000Y-4767000D01*
D11*
X14638000Y-4822000D02*
X14638000Y-4712000D01*
X14598000Y-4822000D02*
X14598000Y-4712000D01*
X14638000Y-4712000D02*
G75*
G03*
X14598000Y-4712000I-20000J0D01*
G01*
X14598000Y-4822000D02*
G75*
G03*
X14638000Y-4822000I20000J0D01*
G01*
D14*
X15482000Y-4319000D02*
X15482000Y-4379000D01*
X15452000Y-4349000D02*
X15512000Y-4349000D01*
D11*
X15502000Y-4379000D02*
X15502000Y-4319000D01*
X15462000Y-4379000D02*
X15462000Y-4319000D01*
X15502000Y-4319000D02*
G75*
G03*
X15462000Y-4319000I-20000J0D01*
G01*
X15462000Y-4379000D02*
G75*
G03*
X15502000Y-4379000I20000J0D01*
G01*
D14*
X15482000Y-4737000D02*
X15482000Y-4797000D01*
X15452000Y-4767000D02*
X15512000Y-4767000D01*
D11*
X15502000Y-4822000D02*
X15502000Y-4712000D01*
X15462000Y-4822000D02*
X15462000Y-4712000D01*
X15502000Y-4712000D02*
G75*
G03*
X15462000Y-4712000I-20000J0D01*
G01*
X15462000Y-4822000D02*
G75*
G03*
X15502000Y-4822000I20000J0D01*
G01*
X8381896Y-15039753D02*
X8381896Y-14839753D01*
X8429515Y-14839753D01*
X8458086Y-14849277D01*
X8477134Y-14868324D01*
X8486658Y-14887372D01*
X8496181Y-14925467D01*
X8496181Y-14954039D01*
X8486658Y-14992134D01*
X8477134Y-15011181D01*
X8458086Y-15030229D01*
X8429515Y-15039753D01*
X8381896Y-15039753D01*
X8581896Y-15039753D02*
X8581896Y-14906419D01*
X8581896Y-14944515D02*
X8591420Y-14925467D01*
X8600943Y-14915943D01*
X8619991Y-14906419D01*
X8639039Y-14906419D01*
X8705705Y-15039753D02*
X8705705Y-14906419D01*
X8705705Y-14839753D02*
X8696181Y-14849277D01*
X8705705Y-14858800D01*
X8715229Y-14849277D01*
X8705705Y-14839753D01*
X8705705Y-14858800D01*
X8829515Y-15039753D02*
X8810467Y-15030229D01*
X8800943Y-15011181D01*
X8800943Y-14839753D01*
X8934277Y-15039753D02*
X8915229Y-15030229D01*
X8905705Y-15011181D01*
X8905705Y-14839753D01*
X9162848Y-15039753D02*
X9162848Y-14839753D01*
X9229515Y-14982610D01*
X9296181Y-14839753D01*
X9296181Y-15039753D01*
X9477134Y-15039753D02*
X9477134Y-14934991D01*
X9467610Y-14915943D01*
X9448562Y-14906419D01*
X9410467Y-14906419D01*
X9391420Y-14915943D01*
X9477134Y-15030229D02*
X9458086Y-15039753D01*
X9410467Y-15039753D01*
X9391420Y-15030229D01*
X9381896Y-15011181D01*
X9381896Y-14992134D01*
X9391420Y-14973086D01*
X9410467Y-14963562D01*
X9458086Y-14963562D01*
X9477134Y-14954039D01*
X9572372Y-14906419D02*
X9572372Y-15106419D01*
X9572372Y-14915943D02*
X9591420Y-14906419D01*
X9629515Y-14906419D01*
X9648562Y-14915943D01*
X9658086Y-14925467D01*
X9667610Y-14944515D01*
X9667610Y-15001658D01*
X9658086Y-15020705D01*
X9648562Y-15030229D01*
X9629515Y-15039753D01*
X9591420Y-15039753D01*
X9572372Y-15030229D01*
X9753324Y-15020705D02*
X9762848Y-15030229D01*
X9753324Y-15039753D01*
X9743801Y-15030229D01*
X9753324Y-15020705D01*
X9753324Y-15039753D01*
X9753324Y-14915943D02*
X9762848Y-14925467D01*
X9753324Y-14934991D01*
X9743801Y-14925467D01*
X9753324Y-14915943D01*
X9753324Y-14934991D01*
D12*
X8094277Y-15354277D02*
X8124277Y-15384277D01*
X8124277Y-15354277D02*
X8094277Y-15384277D01*
D11*
X8419991Y-15259753D02*
X8439039Y-15259753D01*
X8458086Y-15269277D01*
X8467610Y-15278800D01*
X8477134Y-15297848D01*
X8486658Y-15335943D01*
X8486658Y-15383562D01*
X8477134Y-15421658D01*
X8467610Y-15440705D01*
X8458086Y-15450229D01*
X8439039Y-15459753D01*
X8419991Y-15459753D01*
X8400943Y-15450229D01*
X8391420Y-15440705D01*
X8381896Y-15421658D01*
X8372372Y-15383562D01*
X8372372Y-15335943D01*
X8381896Y-15297848D01*
X8391420Y-15278800D01*
X8400943Y-15269277D01*
X8419991Y-15259753D01*
X8572372Y-15440705D02*
X8581896Y-15450229D01*
X8572372Y-15459753D01*
X8562848Y-15450229D01*
X8572372Y-15440705D01*
X8572372Y-15459753D01*
X8648562Y-15259753D02*
X8772372Y-15259753D01*
X8705705Y-15335943D01*
X8734277Y-15335943D01*
X8753324Y-15345467D01*
X8762848Y-15354991D01*
X8772372Y-15374039D01*
X8772372Y-15421658D01*
X8762848Y-15440705D01*
X8753324Y-15450229D01*
X8734277Y-15459753D01*
X8677134Y-15459753D01*
X8658086Y-15450229D01*
X8648562Y-15440705D01*
X8896181Y-15259753D02*
X8915229Y-15259753D01*
X8934277Y-15269277D01*
X8943801Y-15278800D01*
X8953324Y-15297848D01*
X8962848Y-15335943D01*
X8962848Y-15383562D01*
X8953324Y-15421658D01*
X8943801Y-15440705D01*
X8934277Y-15450229D01*
X8915229Y-15459753D01*
X8896181Y-15459753D01*
X8877134Y-15450229D01*
X8867610Y-15440705D01*
X8858086Y-15421658D01*
X8848562Y-15383562D01*
X8848562Y-15335943D01*
X8858086Y-15297848D01*
X8867610Y-15278800D01*
X8877134Y-15269277D01*
X8896181Y-15259753D01*
X9086658Y-15259753D02*
X9105705Y-15259753D01*
X9124753Y-15269277D01*
X9134277Y-15278800D01*
X9143801Y-15297848D01*
X9153324Y-15335943D01*
X9153324Y-15383562D01*
X9143801Y-15421658D01*
X9134277Y-15440705D01*
X9124753Y-15450229D01*
X9105705Y-15459753D01*
X9086658Y-15459753D01*
X9067610Y-15450229D01*
X9058086Y-15440705D01*
X9048562Y-15421658D01*
X9039039Y-15383562D01*
X9039039Y-15335943D01*
X9048562Y-15297848D01*
X9058086Y-15278800D01*
X9067610Y-15269277D01*
X9086658Y-15259753D01*
X9239039Y-15459753D02*
X9239039Y-15326419D01*
X9239039Y-15345467D02*
X9248562Y-15335943D01*
X9267610Y-15326419D01*
X9296181Y-15326419D01*
X9315229Y-15335943D01*
X9324753Y-15354991D01*
X9324753Y-15459753D01*
X9324753Y-15354991D02*
X9334277Y-15335943D01*
X9353324Y-15326419D01*
X9381896Y-15326419D01*
X9400943Y-15335943D01*
X9410467Y-15354991D01*
X9410467Y-15459753D01*
X9505705Y-15459753D02*
X9505705Y-15326419D01*
X9505705Y-15345467D02*
X9515229Y-15335943D01*
X9534277Y-15326419D01*
X9562848Y-15326419D01*
X9581896Y-15335943D01*
X9591420Y-15354991D01*
X9591420Y-15459753D01*
X9591420Y-15354991D02*
X9600943Y-15335943D01*
X9619991Y-15326419D01*
X9648562Y-15326419D01*
X9667610Y-15335943D01*
X9677134Y-15354991D01*
X9677134Y-15459753D01*
X10067610Y-15250229D02*
X9896181Y-15507372D01*
X10324753Y-15259753D02*
X10343801Y-15259753D01*
X10362848Y-15269277D01*
X10372372Y-15278800D01*
X10381896Y-15297848D01*
X10391420Y-15335943D01*
X10391420Y-15383562D01*
X10381896Y-15421658D01*
X10372372Y-15440705D01*
X10362848Y-15450229D01*
X10343801Y-15459753D01*
X10324753Y-15459753D01*
X10305705Y-15450229D01*
X10296181Y-15440705D01*
X10286658Y-15421658D01*
X10277134Y-15383562D01*
X10277134Y-15335943D01*
X10286658Y-15297848D01*
X10296181Y-15278800D01*
X10305705Y-15269277D01*
X10324753Y-15259753D01*
X10477134Y-15440705D02*
X10486658Y-15450229D01*
X10477134Y-15459753D01*
X10467610Y-15450229D01*
X10477134Y-15440705D01*
X10477134Y-15459753D01*
X10610467Y-15259753D02*
X10629515Y-15259753D01*
X10648562Y-15269277D01*
X10658086Y-15278800D01*
X10667610Y-15297848D01*
X10677134Y-15335943D01*
X10677134Y-15383562D01*
X10667610Y-15421658D01*
X10658086Y-15440705D01*
X10648562Y-15450229D01*
X10629515Y-15459753D01*
X10610467Y-15459753D01*
X10591420Y-15450229D01*
X10581896Y-15440705D01*
X10572372Y-15421658D01*
X10562848Y-15383562D01*
X10562848Y-15335943D01*
X10572372Y-15297848D01*
X10581896Y-15278800D01*
X10591420Y-15269277D01*
X10610467Y-15259753D01*
X10867610Y-15459753D02*
X10753324Y-15459753D01*
X10810467Y-15459753D02*
X10810467Y-15259753D01*
X10791420Y-15288324D01*
X10772372Y-15307372D01*
X10753324Y-15316896D01*
X11058086Y-15459753D02*
X10943801Y-15459753D01*
X11000943Y-15459753D02*
X11000943Y-15259753D01*
X10981896Y-15288324D01*
X10962848Y-15307372D01*
X10943801Y-15316896D01*
X11172372Y-15345467D02*
X11153324Y-15335943D01*
X11143801Y-15326419D01*
X11134277Y-15307372D01*
X11134277Y-15297848D01*
X11143801Y-15278800D01*
X11153324Y-15269277D01*
X11172372Y-15259753D01*
X11210467Y-15259753D01*
X11229515Y-15269277D01*
X11239039Y-15278800D01*
X11248562Y-15297848D01*
X11248562Y-15307372D01*
X11239039Y-15326419D01*
X11229515Y-15335943D01*
X11210467Y-15345467D01*
X11172372Y-15345467D01*
X11153324Y-15354991D01*
X11143801Y-15364515D01*
X11134277Y-15383562D01*
X11134277Y-15421658D01*
X11143801Y-15440705D01*
X11153324Y-15450229D01*
X11172372Y-15459753D01*
X11210467Y-15459753D01*
X11229515Y-15450229D01*
X11239039Y-15440705D01*
X11248562Y-15421658D01*
X11248562Y-15383562D01*
X11239039Y-15364515D01*
X11229515Y-15354991D01*
X11210467Y-15345467D01*
X11324753Y-15259753D02*
X11324753Y-15297848D01*
X11400943Y-15259753D02*
X11400943Y-15297848D01*
X11696181Y-15535943D02*
X11686658Y-15526419D01*
X11667610Y-15497848D01*
X11658086Y-15478800D01*
X11648562Y-15450229D01*
X11639039Y-15402610D01*
X11639039Y-15364515D01*
X11648562Y-15316896D01*
X11658086Y-15288324D01*
X11667610Y-15269277D01*
X11686658Y-15240705D01*
X11696181Y-15231181D01*
X11753324Y-15259753D02*
X11886658Y-15259753D01*
X11800943Y-15459753D01*
X11991419Y-15345467D02*
X11972372Y-15335943D01*
X11962848Y-15326419D01*
X11953324Y-15307372D01*
X11953324Y-15297848D01*
X11962848Y-15278800D01*
X11972372Y-15269277D01*
X11991419Y-15259753D01*
X12029515Y-15259753D01*
X12048562Y-15269277D01*
X12058086Y-15278800D01*
X12067610Y-15297848D01*
X12067610Y-15307372D01*
X12058086Y-15326419D01*
X12048562Y-15335943D01*
X12029515Y-15345467D01*
X11991419Y-15345467D01*
X11972372Y-15354991D01*
X11962848Y-15364515D01*
X11953324Y-15383562D01*
X11953324Y-15421658D01*
X11962848Y-15440705D01*
X11972372Y-15450229D01*
X11991419Y-15459753D01*
X12029515Y-15459753D01*
X12048562Y-15450229D01*
X12058086Y-15440705D01*
X12067610Y-15421658D01*
X12067610Y-15383562D01*
X12058086Y-15364515D01*
X12048562Y-15354991D01*
X12029515Y-15345467D01*
X12305705Y-15459753D02*
X12305705Y-15259753D01*
X12391419Y-15459753D02*
X12391419Y-15354991D01*
X12381896Y-15335943D01*
X12362848Y-15326419D01*
X12334277Y-15326419D01*
X12315229Y-15335943D01*
X12305705Y-15345467D01*
X12515229Y-15459753D02*
X12496181Y-15450229D01*
X12486658Y-15440705D01*
X12477134Y-15421658D01*
X12477134Y-15364515D01*
X12486658Y-15345467D01*
X12496181Y-15335943D01*
X12515229Y-15326419D01*
X12543800Y-15326419D01*
X12562848Y-15335943D01*
X12572372Y-15345467D01*
X12581896Y-15364515D01*
X12581896Y-15421658D01*
X12572372Y-15440705D01*
X12562848Y-15450229D01*
X12543800Y-15459753D01*
X12515229Y-15459753D01*
X12696181Y-15459753D02*
X12677134Y-15450229D01*
X12667610Y-15431181D01*
X12667610Y-15259753D01*
X12848562Y-15450229D02*
X12829515Y-15459753D01*
X12791419Y-15459753D01*
X12772372Y-15450229D01*
X12762848Y-15431181D01*
X12762848Y-15354991D01*
X12772372Y-15335943D01*
X12791419Y-15326419D01*
X12829515Y-15326419D01*
X12848562Y-15335943D01*
X12858086Y-15354991D01*
X12858086Y-15374039D01*
X12762848Y-15393086D01*
X12934277Y-15450229D02*
X12953324Y-15459753D01*
X12991419Y-15459753D01*
X13010467Y-15450229D01*
X13019991Y-15431181D01*
X13019991Y-15421658D01*
X13010467Y-15402610D01*
X12991419Y-15393086D01*
X12962848Y-15393086D01*
X12943800Y-15383562D01*
X12934277Y-15364515D01*
X12934277Y-15354991D01*
X12943800Y-15335943D01*
X12962848Y-15326419D01*
X12991419Y-15326419D01*
X13010467Y-15335943D01*
X13086658Y-15535943D02*
X13096181Y-15526419D01*
X13115229Y-15497848D01*
X13124753Y-15478800D01*
X13134277Y-15450229D01*
X13143800Y-15402610D01*
X13143800Y-15364515D01*
X13134277Y-15316896D01*
X13124753Y-15288324D01*
X13115229Y-15269277D01*
X13096181Y-15240705D01*
X13086658Y-15231181D01*
D13*
X8124277Y-15633277D02*
G75*
G03*
X8124277Y-15633277I-20000J0D01*
G01*
D11*
X8419991Y-15523753D02*
X8439039Y-15523753D01*
X8458086Y-15533277D01*
X8467610Y-15542800D01*
X8477134Y-15561848D01*
X8486658Y-15599943D01*
X8486658Y-15647562D01*
X8477134Y-15685658D01*
X8467610Y-15704705D01*
X8458086Y-15714229D01*
X8439039Y-15723753D01*
X8419991Y-15723753D01*
X8400943Y-15714229D01*
X8391420Y-15704705D01*
X8381896Y-15685658D01*
X8372372Y-15647562D01*
X8372372Y-15599943D01*
X8381896Y-15561848D01*
X8391420Y-15542800D01*
X8400943Y-15533277D01*
X8419991Y-15523753D01*
X8572372Y-15704705D02*
X8581896Y-15714229D01*
X8572372Y-15723753D01*
X8562848Y-15714229D01*
X8572372Y-15704705D01*
X8572372Y-15723753D01*
X8753324Y-15590419D02*
X8753324Y-15723753D01*
X8705705Y-15514229D02*
X8658086Y-15657086D01*
X8781896Y-15657086D01*
X8896181Y-15523753D02*
X8915229Y-15523753D01*
X8934277Y-15533277D01*
X8943801Y-15542800D01*
X8953324Y-15561848D01*
X8962848Y-15599943D01*
X8962848Y-15647562D01*
X8953324Y-15685658D01*
X8943801Y-15704705D01*
X8934277Y-15714229D01*
X8915229Y-15723753D01*
X8896181Y-15723753D01*
X8877134Y-15714229D01*
X8867610Y-15704705D01*
X8858086Y-15685658D01*
X8848562Y-15647562D01*
X8848562Y-15599943D01*
X8858086Y-15561848D01*
X8867610Y-15542800D01*
X8877134Y-15533277D01*
X8896181Y-15523753D01*
X9086658Y-15523753D02*
X9105705Y-15523753D01*
X9124753Y-15533277D01*
X9134277Y-15542800D01*
X9143801Y-15561848D01*
X9153324Y-15599943D01*
X9153324Y-15647562D01*
X9143801Y-15685658D01*
X9134277Y-15704705D01*
X9124753Y-15714229D01*
X9105705Y-15723753D01*
X9086658Y-15723753D01*
X9067610Y-15714229D01*
X9058086Y-15704705D01*
X9048562Y-15685658D01*
X9039039Y-15647562D01*
X9039039Y-15599943D01*
X9048562Y-15561848D01*
X9058086Y-15542800D01*
X9067610Y-15533277D01*
X9086658Y-15523753D01*
X9239039Y-15723753D02*
X9239039Y-15590419D01*
X9239039Y-15609467D02*
X9248562Y-15599943D01*
X9267610Y-15590419D01*
X9296181Y-15590419D01*
X9315229Y-15599943D01*
X9324753Y-15618991D01*
X9324753Y-15723753D01*
X9324753Y-15618991D02*
X9334277Y-15599943D01*
X9353324Y-15590419D01*
X9381896Y-15590419D01*
X9400943Y-15599943D01*
X9410467Y-15618991D01*
X9410467Y-15723753D01*
X9505705Y-15723753D02*
X9505705Y-15590419D01*
X9505705Y-15609467D02*
X9515229Y-15599943D01*
X9534277Y-15590419D01*
X9562848Y-15590419D01*
X9581896Y-15599943D01*
X9591420Y-15618991D01*
X9591420Y-15723753D01*
X9591420Y-15618991D02*
X9600943Y-15599943D01*
X9619991Y-15590419D01*
X9648562Y-15590419D01*
X9667610Y-15599943D01*
X9677134Y-15618991D01*
X9677134Y-15723753D01*
X10067610Y-15514229D02*
X9896181Y-15771372D01*
X10324753Y-15523753D02*
X10343801Y-15523753D01*
X10362848Y-15533277D01*
X10372372Y-15542800D01*
X10381896Y-15561848D01*
X10391420Y-15599943D01*
X10391420Y-15647562D01*
X10381896Y-15685658D01*
X10372372Y-15704705D01*
X10362848Y-15714229D01*
X10343801Y-15723753D01*
X10324753Y-15723753D01*
X10305705Y-15714229D01*
X10296181Y-15704705D01*
X10286658Y-15685658D01*
X10277134Y-15647562D01*
X10277134Y-15599943D01*
X10286658Y-15561848D01*
X10296181Y-15542800D01*
X10305705Y-15533277D01*
X10324753Y-15523753D01*
X10477134Y-15704705D02*
X10486658Y-15714229D01*
X10477134Y-15723753D01*
X10467610Y-15714229D01*
X10477134Y-15704705D01*
X10477134Y-15723753D01*
X10610467Y-15523753D02*
X10629515Y-15523753D01*
X10648562Y-15533277D01*
X10658086Y-15542800D01*
X10667610Y-15561848D01*
X10677134Y-15599943D01*
X10677134Y-15647562D01*
X10667610Y-15685658D01*
X10658086Y-15704705D01*
X10648562Y-15714229D01*
X10629515Y-15723753D01*
X10610467Y-15723753D01*
X10591420Y-15714229D01*
X10581896Y-15704705D01*
X10572372Y-15685658D01*
X10562848Y-15647562D01*
X10562848Y-15599943D01*
X10572372Y-15561848D01*
X10581896Y-15542800D01*
X10591420Y-15533277D01*
X10610467Y-15523753D01*
X10867610Y-15723753D02*
X10753324Y-15723753D01*
X10810467Y-15723753D02*
X10810467Y-15523753D01*
X10791420Y-15552324D01*
X10772372Y-15571372D01*
X10753324Y-15580896D01*
X11048562Y-15523753D02*
X10953324Y-15523753D01*
X10943801Y-15618991D01*
X10953324Y-15609467D01*
X10972372Y-15599943D01*
X11019991Y-15599943D01*
X11039039Y-15609467D01*
X11048562Y-15618991D01*
X11058086Y-15638039D01*
X11058086Y-15685658D01*
X11048562Y-15704705D01*
X11039039Y-15714229D01*
X11019991Y-15723753D01*
X10972372Y-15723753D01*
X10953324Y-15714229D01*
X10943801Y-15704705D01*
X11124753Y-15523753D02*
X11258086Y-15523753D01*
X11172372Y-15723753D01*
X11324753Y-15523753D02*
X11324753Y-15561848D01*
X11400943Y-15523753D02*
X11400943Y-15561848D01*
X11696181Y-15799943D02*
X11686658Y-15790419D01*
X11667610Y-15761848D01*
X11658086Y-15742800D01*
X11648562Y-15714229D01*
X11639039Y-15666610D01*
X11639039Y-15628515D01*
X11648562Y-15580896D01*
X11658086Y-15552324D01*
X11667610Y-15533277D01*
X11686658Y-15504705D01*
X11696181Y-15495181D01*
X11858086Y-15590419D02*
X11858086Y-15723753D01*
X11810467Y-15514229D02*
X11762848Y-15657086D01*
X11886658Y-15657086D01*
X12115229Y-15723753D02*
X12115229Y-15523753D01*
X12200943Y-15723753D02*
X12200943Y-15618991D01*
X12191419Y-15599943D01*
X12172372Y-15590419D01*
X12143800Y-15590419D01*
X12124753Y-15599943D01*
X12115229Y-15609467D01*
X12324753Y-15723753D02*
X12305705Y-15714229D01*
X12296181Y-15704705D01*
X12286658Y-15685658D01*
X12286658Y-15628515D01*
X12296181Y-15609467D01*
X12305705Y-15599943D01*
X12324753Y-15590419D01*
X12353324Y-15590419D01*
X12372372Y-15599943D01*
X12381896Y-15609467D01*
X12391419Y-15628515D01*
X12391419Y-15685658D01*
X12381896Y-15704705D01*
X12372372Y-15714229D01*
X12353324Y-15723753D01*
X12324753Y-15723753D01*
X12505705Y-15723753D02*
X12486658Y-15714229D01*
X12477134Y-15695181D01*
X12477134Y-15523753D01*
X12658086Y-15714229D02*
X12639039Y-15723753D01*
X12600943Y-15723753D01*
X12581896Y-15714229D01*
X12572372Y-15695181D01*
X12572372Y-15618991D01*
X12581896Y-15599943D01*
X12600943Y-15590419D01*
X12639039Y-15590419D01*
X12658086Y-15599943D01*
X12667610Y-15618991D01*
X12667610Y-15638039D01*
X12572372Y-15657086D01*
X12743800Y-15714229D02*
X12762848Y-15723753D01*
X12800943Y-15723753D01*
X12819991Y-15714229D01*
X12829515Y-15695181D01*
X12829515Y-15685658D01*
X12819991Y-15666610D01*
X12800943Y-15657086D01*
X12772372Y-15657086D01*
X12753324Y-15647562D01*
X12743800Y-15628515D01*
X12743800Y-15618991D01*
X12753324Y-15599943D01*
X12772372Y-15590419D01*
X12800943Y-15590419D01*
X12819991Y-15599943D01*
X12896181Y-15799943D02*
X12905705Y-15790419D01*
X12924753Y-15761848D01*
X12934277Y-15742800D01*
X12943800Y-15714229D01*
X12953324Y-15666610D01*
X12953324Y-15628515D01*
X12943800Y-15580896D01*
X12934277Y-15552324D01*
X12924753Y-15533277D01*
X12905705Y-15504705D01*
X12896181Y-15495181D01*
D14*
X8094277Y-15867277D02*
X8094277Y-15927277D01*
X8064277Y-15897277D02*
X8124277Y-15897277D01*
D11*
X8419991Y-15787753D02*
X8439039Y-15787753D01*
X8458086Y-15797277D01*
X8467610Y-15806800D01*
X8477134Y-15825848D01*
X8486658Y-15863943D01*
X8486658Y-15911562D01*
X8477134Y-15949658D01*
X8467610Y-15968705D01*
X8458086Y-15978229D01*
X8439039Y-15987753D01*
X8419991Y-15987753D01*
X8400943Y-15978229D01*
X8391420Y-15968705D01*
X8381896Y-15949658D01*
X8372372Y-15911562D01*
X8372372Y-15863943D01*
X8381896Y-15825848D01*
X8391420Y-15806800D01*
X8400943Y-15797277D01*
X8419991Y-15787753D01*
X8572372Y-15968705D02*
X8581896Y-15978229D01*
X8572372Y-15987753D01*
X8562848Y-15978229D01*
X8572372Y-15968705D01*
X8572372Y-15987753D01*
X8753324Y-15787753D02*
X8715229Y-15787753D01*
X8696181Y-15797277D01*
X8686658Y-15806800D01*
X8667610Y-15835372D01*
X8658086Y-15873467D01*
X8658086Y-15949658D01*
X8667610Y-15968705D01*
X8677134Y-15978229D01*
X8696181Y-15987753D01*
X8734277Y-15987753D01*
X8753324Y-15978229D01*
X8762848Y-15968705D01*
X8772372Y-15949658D01*
X8772372Y-15902039D01*
X8762848Y-15882991D01*
X8753324Y-15873467D01*
X8734277Y-15863943D01*
X8696181Y-15863943D01*
X8677134Y-15873467D01*
X8667610Y-15882991D01*
X8658086Y-15902039D01*
X8896181Y-15787753D02*
X8915229Y-15787753D01*
X8934277Y-15797277D01*
X8943801Y-15806800D01*
X8953324Y-15825848D01*
X8962848Y-15863943D01*
X8962848Y-15911562D01*
X8953324Y-15949658D01*
X8943801Y-15968705D01*
X8934277Y-15978229D01*
X8915229Y-15987753D01*
X8896181Y-15987753D01*
X8877134Y-15978229D01*
X8867610Y-15968705D01*
X8858086Y-15949658D01*
X8848562Y-15911562D01*
X8848562Y-15863943D01*
X8858086Y-15825848D01*
X8867610Y-15806800D01*
X8877134Y-15797277D01*
X8896181Y-15787753D01*
X9086658Y-15787753D02*
X9105705Y-15787753D01*
X9124753Y-15797277D01*
X9134277Y-15806800D01*
X9143801Y-15825848D01*
X9153324Y-15863943D01*
X9153324Y-15911562D01*
X9143801Y-15949658D01*
X9134277Y-15968705D01*
X9124753Y-15978229D01*
X9105705Y-15987753D01*
X9086658Y-15987753D01*
X9067610Y-15978229D01*
X9058086Y-15968705D01*
X9048562Y-15949658D01*
X9039039Y-15911562D01*
X9039039Y-15863943D01*
X9048562Y-15825848D01*
X9058086Y-15806800D01*
X9067610Y-15797277D01*
X9086658Y-15787753D01*
X9239039Y-15987753D02*
X9239039Y-15854419D01*
X9239039Y-15873467D02*
X9248562Y-15863943D01*
X9267610Y-15854419D01*
X9296181Y-15854419D01*
X9315229Y-15863943D01*
X9324753Y-15882991D01*
X9324753Y-15987753D01*
X9324753Y-15882991D02*
X9334277Y-15863943D01*
X9353324Y-15854419D01*
X9381896Y-15854419D01*
X9400943Y-15863943D01*
X9410467Y-15882991D01*
X9410467Y-15987753D01*
X9505705Y-15987753D02*
X9505705Y-15854419D01*
X9505705Y-15873467D02*
X9515229Y-15863943D01*
X9534277Y-15854419D01*
X9562848Y-15854419D01*
X9581896Y-15863943D01*
X9591420Y-15882991D01*
X9591420Y-15987753D01*
X9591420Y-15882991D02*
X9600943Y-15863943D01*
X9619991Y-15854419D01*
X9648562Y-15854419D01*
X9667610Y-15863943D01*
X9677134Y-15882991D01*
X9677134Y-15987753D01*
X10067610Y-15778229D02*
X9896181Y-16035372D01*
X10324753Y-15787753D02*
X10343801Y-15787753D01*
X10362848Y-15797277D01*
X10372372Y-15806800D01*
X10381896Y-15825848D01*
X10391420Y-15863943D01*
X10391420Y-15911562D01*
X10381896Y-15949658D01*
X10372372Y-15968705D01*
X10362848Y-15978229D01*
X10343801Y-15987753D01*
X10324753Y-15987753D01*
X10305705Y-15978229D01*
X10296181Y-15968705D01*
X10286658Y-15949658D01*
X10277134Y-15911562D01*
X10277134Y-15863943D01*
X10286658Y-15825848D01*
X10296181Y-15806800D01*
X10305705Y-15797277D01*
X10324753Y-15787753D01*
X10477134Y-15968705D02*
X10486658Y-15978229D01*
X10477134Y-15987753D01*
X10467610Y-15978229D01*
X10477134Y-15968705D01*
X10477134Y-15987753D01*
X10610467Y-15787753D02*
X10629515Y-15787753D01*
X10648562Y-15797277D01*
X10658086Y-15806800D01*
X10667610Y-15825848D01*
X10677134Y-15863943D01*
X10677134Y-15911562D01*
X10667610Y-15949658D01*
X10658086Y-15968705D01*
X10648562Y-15978229D01*
X10629515Y-15987753D01*
X10610467Y-15987753D01*
X10591420Y-15978229D01*
X10581896Y-15968705D01*
X10572372Y-15949658D01*
X10562848Y-15911562D01*
X10562848Y-15863943D01*
X10572372Y-15825848D01*
X10581896Y-15806800D01*
X10591420Y-15797277D01*
X10610467Y-15787753D01*
X10753324Y-15806800D02*
X10762848Y-15797277D01*
X10781896Y-15787753D01*
X10829515Y-15787753D01*
X10848562Y-15797277D01*
X10858086Y-15806800D01*
X10867610Y-15825848D01*
X10867610Y-15844896D01*
X10858086Y-15873467D01*
X10743801Y-15987753D01*
X10867610Y-15987753D01*
X10934277Y-15787753D02*
X11058086Y-15787753D01*
X10991420Y-15863943D01*
X11019991Y-15863943D01*
X11039039Y-15873467D01*
X11048562Y-15882991D01*
X11058086Y-15902039D01*
X11058086Y-15949658D01*
X11048562Y-15968705D01*
X11039039Y-15978229D01*
X11019991Y-15987753D01*
X10962848Y-15987753D01*
X10943801Y-15978229D01*
X10934277Y-15968705D01*
X11229515Y-15787753D02*
X11191419Y-15787753D01*
X11172372Y-15797277D01*
X11162848Y-15806800D01*
X11143801Y-15835372D01*
X11134277Y-15873467D01*
X11134277Y-15949658D01*
X11143801Y-15968705D01*
X11153324Y-15978229D01*
X11172372Y-15987753D01*
X11210467Y-15987753D01*
X11229515Y-15978229D01*
X11239039Y-15968705D01*
X11248562Y-15949658D01*
X11248562Y-15902039D01*
X11239039Y-15882991D01*
X11229515Y-15873467D01*
X11210467Y-15863943D01*
X11172372Y-15863943D01*
X11153324Y-15873467D01*
X11143801Y-15882991D01*
X11134277Y-15902039D01*
X11324753Y-15787753D02*
X11324753Y-15825848D01*
X11400943Y-15787753D02*
X11400943Y-15825848D01*
X11696181Y-16063943D02*
X11686658Y-16054419D01*
X11667610Y-16025848D01*
X11658086Y-16006800D01*
X11648562Y-15978229D01*
X11639039Y-15930610D01*
X11639039Y-15892515D01*
X11648562Y-15844896D01*
X11658086Y-15816324D01*
X11667610Y-15797277D01*
X11686658Y-15768705D01*
X11696181Y-15759181D01*
X11810467Y-15787753D02*
X11829515Y-15787753D01*
X11848562Y-15797277D01*
X11858086Y-15806800D01*
X11867610Y-15825848D01*
X11877134Y-15863943D01*
X11877134Y-15911562D01*
X11867610Y-15949658D01*
X11858086Y-15968705D01*
X11848562Y-15978229D01*
X11829515Y-15987753D01*
X11810467Y-15987753D01*
X11791419Y-15978229D01*
X11781896Y-15968705D01*
X11772372Y-15949658D01*
X11762848Y-15911562D01*
X11762848Y-15863943D01*
X11772372Y-15825848D01*
X11781896Y-15806800D01*
X11791419Y-15797277D01*
X11810467Y-15787753D01*
X12115229Y-15987753D02*
X12115229Y-15787753D01*
X12200943Y-15987753D02*
X12200943Y-15882991D01*
X12191419Y-15863943D01*
X12172372Y-15854419D01*
X12143800Y-15854419D01*
X12124753Y-15863943D01*
X12115229Y-15873467D01*
X12324753Y-15987753D02*
X12305705Y-15978229D01*
X12296181Y-15968705D01*
X12286658Y-15949658D01*
X12286658Y-15892515D01*
X12296181Y-15873467D01*
X12305705Y-15863943D01*
X12324753Y-15854419D01*
X12353324Y-15854419D01*
X12372372Y-15863943D01*
X12381896Y-15873467D01*
X12391419Y-15892515D01*
X12391419Y-15949658D01*
X12381896Y-15968705D01*
X12372372Y-15978229D01*
X12353324Y-15987753D01*
X12324753Y-15987753D01*
X12505705Y-15987753D02*
X12486658Y-15978229D01*
X12477134Y-15959181D01*
X12477134Y-15787753D01*
X12658086Y-15978229D02*
X12639039Y-15987753D01*
X12600943Y-15987753D01*
X12581896Y-15978229D01*
X12572372Y-15959181D01*
X12572372Y-15882991D01*
X12581896Y-15863943D01*
X12600943Y-15854419D01*
X12639039Y-15854419D01*
X12658086Y-15863943D01*
X12667610Y-15882991D01*
X12667610Y-15902039D01*
X12572372Y-15921086D01*
X12743800Y-15978229D02*
X12762848Y-15987753D01*
X12800943Y-15987753D01*
X12819991Y-15978229D01*
X12829515Y-15959181D01*
X12829515Y-15949658D01*
X12819991Y-15930610D01*
X12800943Y-15921086D01*
X12772372Y-15921086D01*
X12753324Y-15911562D01*
X12743800Y-15892515D01*
X12743800Y-15882991D01*
X12753324Y-15863943D01*
X12772372Y-15854419D01*
X12800943Y-15854419D01*
X12819991Y-15863943D01*
X13067610Y-15911562D02*
X13219991Y-15911562D01*
X13143800Y-15987753D02*
X13143800Y-15835372D01*
X13553324Y-15854419D02*
X13553324Y-15987753D01*
X13505705Y-15778229D02*
X13458086Y-15921086D01*
X13581896Y-15921086D01*
X13800943Y-15978229D02*
X13819991Y-15987753D01*
X13858086Y-15987753D01*
X13877134Y-15978229D01*
X13886658Y-15959181D01*
X13886658Y-15949658D01*
X13877134Y-15930610D01*
X13858086Y-15921086D01*
X13829515Y-15921086D01*
X13810467Y-15911562D01*
X13800943Y-15892515D01*
X13800943Y-15882991D01*
X13810467Y-15863943D01*
X13829515Y-15854419D01*
X13858086Y-15854419D01*
X13877134Y-15863943D01*
X14000943Y-15987753D02*
X13981896Y-15978229D01*
X13972372Y-15959181D01*
X13972372Y-15787753D01*
X14105705Y-15987753D02*
X14086658Y-15978229D01*
X14077134Y-15968705D01*
X14067610Y-15949658D01*
X14067610Y-15892515D01*
X14077134Y-15873467D01*
X14086658Y-15863943D01*
X14105705Y-15854419D01*
X14134277Y-15854419D01*
X14153324Y-15863943D01*
X14162848Y-15873467D01*
X14172372Y-15892515D01*
X14172372Y-15949658D01*
X14162848Y-15968705D01*
X14153324Y-15978229D01*
X14134277Y-15987753D01*
X14105705Y-15987753D01*
X14229515Y-15854419D02*
X14305705Y-15854419D01*
X14258086Y-15787753D02*
X14258086Y-15959181D01*
X14267610Y-15978229D01*
X14286658Y-15987753D01*
X14305705Y-15987753D01*
X14362848Y-15978229D02*
X14381896Y-15987753D01*
X14419991Y-15987753D01*
X14439039Y-15978229D01*
X14448562Y-15959181D01*
X14448562Y-15949658D01*
X14439039Y-15930610D01*
X14419991Y-15921086D01*
X14391419Y-15921086D01*
X14372372Y-15911562D01*
X14362848Y-15892515D01*
X14362848Y-15882991D01*
X14372372Y-15863943D01*
X14391419Y-15854419D01*
X14419991Y-15854419D01*
X14439039Y-15863943D01*
X14515229Y-16063943D02*
X14524753Y-16054419D01*
X14543800Y-16025848D01*
X14553324Y-16006800D01*
X14562848Y-15978229D01*
X14572372Y-15930610D01*
X14572372Y-15892515D01*
X14562848Y-15844896D01*
X14553324Y-15816324D01*
X14543800Y-15797277D01*
X14524753Y-15768705D01*
X14515229Y-15759181D01*
M02*
